<?xml version="1.0" encoding="UTF-8"?>
<svg width="80px" height="80px" viewBox="0 0 80 80" version="1.1" xmlns="http://www.w3.org/2000/svg" xmlns:xlink="http://www.w3.org/1999/xlink">
    <!-- Generator: Sketch 55.2 (78181) - https://sketchapp.com -->
    <title>icons/phone/ic_address</title>
    <desc>Created with Sketch.</desc>
    <defs>
        <path d="M26,32.1703057 L27.5263158,32.1703057 C27.8315789,33.0873362 28.7473684,33.69869 29.6631579,33.69869 C31.0368421,33.69869 31.9526316,32.628821 31.9526316,31.4061135 C31.9526316,30.1834061 30.8842105,29.1135371 29.6631579,29.1135371 C28.7473684,29.1135371 27.8315789,29.7248908 27.5263158,30.6419214 L26,30.6419214 L26,23 L51.0315789,23 C53.7789474,23 55,24.2227074 55,26.8209607 L55,54.1790393 C55,56.7772926 53.7789474,58 51.0315789,58 L26,58 L26,50.510917 L27.5263158,50.510917 C27.8315789,51.4279476 28.7473684,52.0393013 29.6631579,52.0393013 C31.0368421,52.0393013 31.9526316,50.9694323 31.9526316,49.7467249 C31.9526316,48.5240175 30.8842105,47.4541485 29.6631579,47.4541485 C28.7473684,47.4541485 27.8315789,48.0655022 27.5263158,48.9825328 L26,48.9825328 L26,44.3973799 L27.5263158,44.3973799 C27.8315789,45.3144105 28.7473684,45.9257642 29.6631579,45.9257642 C31.0368421,45.9257642 31.9526316,44.8558952 31.9526316,43.6331878 C31.9526316,42.4104803 30.8842105,41.3406114 29.6631579,41.3406114 C28.7473684,41.3406114 27.8315789,41.9519651 27.5263158,42.8689956 L26,42.8689956 L26,38.2838428 L27.5263158,38.2838428 C27.8315789,39.2008734 28.7473684,39.8122271 29.6631579,39.8122271 C31.0368421,39.8122271 31.9526316,38.7423581 31.9526316,37.5196507 C31.9526316,36.2969432 30.8842105,35.2270742 29.6631579,35.2270742 C28.7473684,35.2270742 27.8315789,35.8384279 27.5263158,36.7554585 L26,36.7554585 L26,32.1703057 Z M51.9473684,51.4279476 C51.9473684,46.3842795 48.4368421,42.7161572 43.5526316,42.7161572 C38.5157895,42.7161572 35.1578947,46.231441 35.1578947,51.4279476 L35.1578947,52.0393013 L51.9473684,52.0393013 L51.9473684,51.4279476 Z M43.5526316,30.489083 C40.5,30.489083 38.0578947,32.9344978 38.0578947,35.9912664 C38.0578947,39.0480349 40.5,41.4934498 43.5526316,41.4934498 C46.6052632,41.4934498 49.0473684,39.0480349 49.0473684,35.9912664 C49.0473684,32.9344978 46.6052632,30.489083 43.5526316,30.489083 Z" id="path-1"></path>
    </defs>
    <g id="icons/phone/ic_address" stroke="none" stroke-width="1" fill="none" fill-rule="evenodd">
        <mask id="mask-2" fill="white">
            <use xlink:href="#path-1"></use>
        </mask>
        <use id="ICON_PHONE_005" fill="#FFFFFF" xlink:href="#path-1"></use>
    </g>
</svg>