<?xml version="1.0" encoding="UTF-8"?>
<svg width="80px" height="80px" viewBox="0 0 80 80" version="1.1" xmlns="http://www.w3.org/2000/svg" xmlns:xlink="http://www.w3.org/1999/xlink">
    <!-- Generator: Sketch 55.2 (78181) - https://sketchapp.com -->
    <title>icons/media/ic_artist</title>
    <desc>Created with Sketch.</desc>
    <defs>
        <path d="M21.2978469,49.3866667 L20.1561905,48.2351515 L26.7435481,39.5757576 C26.8727149,36.9971452 29.0136362,34.9908856 31.5727548,35.050303 C33.0633992,35.0502906 34.4926597,35.6491321 35.5445599,36.7144377 C36.5964601,37.7797432 37.1843598,39.2237684 37.1783345,40.7272727 C37.107668,43.2506442 35.2022794,45.3346883 32.7144112,45.609697 L24.2889868,52.2424242 L23.1473303,51.0909091 L22.3139211,51.9315152 C21.640344,52.5485032 21.2689396,53.4324184 21.2978469,54.349697 L21.2978469,58 L19.014534,58 L19.014534,54.2921212 C18.9016458,52.7490409 19.4503611,51.2312361 20.5215205,50.1236364 L21.2978469,49.3866667 Z M28.6386978,40.7272727 L31.5727548,43.5715249 C33.3093878,43.5757143 34.7519643,42.2213748 34.8721419,40.4739394 C34.7793892,38.7794368 33.4251806,37.4334742 31.7440033,37.3648485 C30.8857699,37.3824277 30.0711966,37.7499014 29.486101,38.3834428 C28.9010054,39.0169842 28.5952915,39.8625573 28.6386978,40.7272727 L28.6386978,40.7272727 Z M33.8560677,47.5212121 C35.5899618,47.3409827 37.1769324,46.4581929 38.2531775,45.0752164 C39.3294225,43.6922399 39.8026406,41.9276838 39.5643498,40.1860606 C41.2299298,39.7703092 42.9403428,39.5652987 44.6561375,39.5757576 C53.526808,39.5757576 60,45.609697 60,55.2593939 L60,58 L29.2894403,58 L29.2894403,55.3054545 C29.2888781,53.7591441 29.4380008,52.2164722 29.7346879,50.6993939 L33.8560677,47.5212121 Z M44.6561375,37.2727273 C39.9272418,37.2727273 36.0937144,33.4060955 36.0937144,28.6363636 C36.0937144,23.8666318 39.9272418,20 44.6561375,20 C47.7029605,20 50.5183411,21.6394972 52.0417526,24.3009091 C53.5651641,26.9623209 53.5651641,30.2413155 52.0417526,32.9027273 C50.5183411,35.5641391 47.7029605,37.2036364 44.6561375,37.2036364 L44.6561375,37.2727273 Z" id="path-1"></path>
    </defs>
    <g id="icons/media/ic_artist" stroke="none" stroke-width="1" fill="none" fill-rule="evenodd">
        <mask id="mask-2" fill="white">
            <use xlink:href="#path-1"></use>
        </mask>
        <use id="ICON_MEDIA_019" fill="#FFFFFF" xlink:href="#path-1"></use>
    </g>
</svg>