<?xml version="1.0" encoding="UTF-8"?>
<svg width="80px" height="80px" viewBox="0 0 80 80" version="1.1" xmlns="http://www.w3.org/2000/svg" xmlns:xlink="http://www.w3.org/1999/xlink">
    <!-- Generator: Sketch 55.2 (78181) - https://sketchapp.com -->
    <title>icons/weather/ic_cloudy_partly_rain</title>
    <desc>Created with Sketch.</desc>
    <g id="icons/weather/ic_cloudy_partly_rain" stroke="none" stroke-width="1" fill="none" fill-rule="evenodd">
        <path d="M45.0902716,29.3588442 C48.4042653,29.3612171 51.3931249,31.4069967 52.6720068,34.5483014 L52.9589764,35.2559546 L53.6993578,35.2559546 C57.0276247,35.2559546 59.7257182,38.0281922 59.7257182,41.4479206 C59.7257182,44.8676489 57.0276247,47.6398865 53.6993578,47.6398865 L35.0463376,47.6398865 C32.5105152,47.6398865 30.4548249,45.5277055 30.4548249,42.9221982 C30.4548249,40.3166908 32.5105152,38.2045098 35.0463376,38.2045098 C35.654584,38.2394346 36.259143,38.3242296 36.8542457,38.4580856 L36.9116396,37.2314866 C37.2622661,32.8369506 40.7995118,29.4320448 45.0902716,29.3588442 L45.0902716,29.3588442 Z M45.0902716,27 C40.039071,27.0534567 35.7214144,30.750379 34.7593681,35.8456657 C30.9556344,35.9189455 27.9299153,39.1466222 28.0012354,43.0548832 C28.0725554,46.9631442 31.213907,50.0720106 35.0176406,49.9987307 L53.6706608,49.9987307 C58.1210207,50.0026197 61.7867706,46.4083173 61.9910809,41.8404802 C62.1953912,37.2726432 58.8659476,33.3480272 54.4339998,32.9324931 C52.6633069,29.297272 49.0466297,27.0009817 45.0902716,27 L45.0902716,27 Z" id="Combined-Shape" fill="#CED8E6"></path>
        <path d="M49.6366422,52.1158991 L49.6366422,53.4270801 C49.6366422,54.0015076 49.1540523,54.467173 48.5587476,54.467173 C47.980307,54.4317613 47.5201996,53.9854157 47.4865864,53.4270801 L47.4865864,52.1158991 C47.4571497,51.7272149 47.6553685,51.3552655 48.0001297,51.1522566 C48.3448909,50.9492478 48.7783377,50.9492478 49.1230989,51.1522566 C49.46786,51.3552655 49.6660789,51.7272149 49.6366422,52.1158991 Z M44.258636,52.1158991 L44.258636,55.9885856 C44.258636,56.2629681 44.1456765,56.5261126 43.9446073,56.7201304 C43.7435381,56.9141481 43.4708297,57.0231461 43.1864749,57.0231461 C42.6078468,56.9907117 42.145279,56.5467403 42.1085802,55.9885856 L42.1085802,52.1158991 C42.0791435,51.7272149 42.2773624,51.3552655 42.6221236,51.1522566 C42.9668847,50.9492478 43.4003315,50.9492478 43.7450927,51.1522566 C44.0898539,51.3552655 44.2880727,51.7272149 44.258636,52.1158991 Z M61.5049501,55.3800206 C61.6941751,55.5737023 61.7935362,55.8333679 61.7801572,56.0992338 C61.6950668,56.7218809 61.1349363,57.1810556 60.4843903,57.1614564 C58.3480538,56.9789958 56.2889669,57.9799349 55.1694524,59.7450915 C54.7279743,60.4643047 54.5158354,60.7796521 53.9424872,60.7796521 C53.3638592,60.7472177 52.9012913,60.3032462 52.8645926,59.7450915 L52.8645926,52.1158991 C52.8351558,51.7272149 53.0333747,51.3552655 53.3781359,51.1522566 C53.7228971,50.9492478 54.1563438,50.9492478 54.501105,51.1522566 C54.8458662,51.3552655 55.0440851,51.7272149 55.0146484,52.1158991 L55.0146484,56.8073822 L55.4733269,56.4865024 C57.0092032,55.4060108 58.8926071,54.886487 60.7882648,55.020414 C61.0660922,55.0472278 61.3226431,55.1759557 61.5049501,55.3800206 Z M30.2460058,55.3800206 C30.4257923,55.1758428 30.6806571,55.0469296 30.9569576,55.020414 C32.8564611,54.8838182 34.7444049,55.4034732 36.2833624,56.4865024 L36.7363075,56.8073822 L36.7363075,52.1158991 C36.7068708,51.7272149 36.9050897,51.3552655 37.2498509,51.1522566 C37.594612,50.9492478 38.0280588,50.9492478 38.37282,51.1522566 C38.7175812,51.3552655 38.9158,51.7272149 38.8863633,52.1158991 L38.8863633,59.7450915 C38.865493,60.3100442 38.3940572,60.762527 37.8084687,60.7796521 C37.2351205,60.7796521 37.0229816,60.4643047 36.587237,59.7450915 C35.4658215,57.9790363 33.4046181,56.978148 31.2665656,57.1614564 C30.6280956,57.166464 30.086441,56.7103254 30.0051996,56.0992338 C29.9769947,55.8374785 30.0644176,55.5763736 30.2460058,55.3800206 Z M44.0063628,59.1199293 L44.0235632,59.103332 C44.3562705,59.4180134 44.4585975,59.8956532 44.2824661,60.3118335 C44.1063347,60.7280139 43.6867591,61 43.2208757,61 C42.7549924,61 42.3354168,60.7280139 42.1592854,60.3118335 C41.983154,59.8956532 42.085481,59.4180134 42.4181883,59.103332 C42.621114,58.8938687 42.9065694,58.7772572 43.2036753,58.7824523 C43.5089666,58.7788848 43.8012013,58.9017501 44.0063628,59.1199293 Z M49.361435,56.5584238 L49.372902,56.5473589 C49.70727,56.8614078 49.8110798,57.3396426 49.6354275,57.7567718 C49.4597752,58.1739011 49.0396946,58.4467289 48.5730813,58.4467289 C48.1064679,58.4467289 47.6863873,58.1739011 47.510735,57.7567718 C47.3350827,57.3396426 47.4388925,56.8614078 47.7732605,56.5473589 C47.9744438,56.3355016 48.261073,56.2184106 48.5587476,56.2264792 C48.8637348,56.218577 49.1570293,56.3398664 49.361435,56.5584238 Z M63.7066072,56.0992338 C63.7198746,55.8135272 63.8472721,55.5438748 64.0620831,55.3468261 C64.26543,55.1262196 64.5588724,55.0028465 64.8647706,55.0093491 C65.1624451,55.0012805 65.4490743,55.1183716 65.6502576,55.3302289 C65.8670377,55.5322555 65.992678,55.8085104 66,56.0992338 C65.9941795,56.3918878 65.8684205,56.670393 65.6502576,56.8737711 C65.2050796,57.2918961 64.4957941,57.2918961 64.0506161,56.8737711 C63.8345621,56.6694808 63.7109154,56.3910897 63.7066072,56.0992338 Z" id="Combined-Shape" fill="#00DCFF"></path>
        <path d="M35.0145459,21.1112237 C35.0145459,21.7599569 34.4891892,22.285859 33.8411289,22.285859 C33.1930686,22.285859 32.667712,21.7599569 32.667712,21.1112237 L32.667712,18.1746353 C32.667712,17.5259022 33.1930686,17 33.8411289,17 C34.4891892,17 35.0145459,17.5259022 35.0145459,18.1746353 L35.0145459,21.1112237 Z M22.1069594,31.6829417 C22.7550196,31.6829417 23.2803763,32.2088438 23.2803763,32.857577 C23.2803763,33.5063102 22.7550196,34.0322123 22.1069594,34.0322123 L19.173417,34.0322123 C18.5253567,34.0322123 18,33.5063102 18,32.857577 C18,32.2088438 18.5253567,31.6829417 19.173417,31.6829417 L22.1069594,31.6829417 Z M26.37233,23.8128849 C26.6011186,24.0261935 26.7310568,24.325091 26.7310568,24.6380663 C26.7310568,24.9510416 26.6011186,25.249939 26.37233,25.4632476 C25.9167783,25.907127 25.190965,25.907127 24.7354133,25.4632476 L23.0456929,23.7717727 C22.820175,23.5443714 22.6972487,23.2346149 22.705402,22.9142889 C22.7169116,22.5823622 22.8682545,22.2708269 23.121965,22.0568051 C23.3376462,21.8333268 23.6329992,21.7045036 23.9433569,21.6985413 C24.2487788,21.7060144 24.5392467,21.8324359 24.7530146,22.0509319 L26.37233,23.8128849 Z M44.6365649,22.1272832 C44.8659652,22.3358061 44.9977421,22.6309015 45,22.9410799 C45.0022004,23.2512582 44.8746786,23.5482211 44.6482991,23.7600263 L42.9585787,25.3810231 C42.503027,25.8249025 41.7772137,25.8249025 41.321662,25.3810231 C41.0950876,25.1689055 40.9664898,24.8722573 40.9664898,24.561715 C40.9664898,24.2511726 41.0950876,23.9545245 41.321662,23.7424068 L42.9937812,22.0509319 C43.196747,21.8601675 43.4664323,21.7568214 43.7447681,21.7631463 C44.0779534,21.7641877 44.3977065,21.8947487 44.6365649,22.1272832 Z M26.37233,40.3341309 C26.5989045,40.5462485 26.7275022,40.8428967 26.7275022,41.1534391 C26.7275022,41.4639814 26.5989045,41.7606296 26.37233,41.9727472 L24.6884767,43.6642221 C24.2322011,44.111926 23.5019685,44.111926 23.0456929,43.6642221 C22.8082756,43.4317882 22.6803609,43.1095353 22.6936678,42.7773724 C22.7014052,42.4869865 22.8288258,42.2127478 23.0456929,42.0197326 L24.7354133,40.3341309 C24.9464118,40.1057127 25.2430871,39.9758387 25.5538717,39.9758387 C25.8646563,39.9758387 26.1613315,40.1057127 26.37233,40.3341309 Z M41.0165736,28.3293578 C40.3040074,28.6809286 39.6312896,29.1082132 39.0100306,29.6038371 L38.828151,29.333671 C37.2871281,27.1524395 34.5145326,26.2182409 31.9695819,27.022744 C29.4246311,27.8272471 27.6908347,30.1859945 27.6806899,32.857577 C27.6912689,34.8279267 28.6227051,36.6796927 30.1976693,37.8615235 L30.4264856,38.0377188 C29.8674038,38.5703705 29.3996197,39.1914231 29.0418536,39.8760231 L28.8541069,39.7409401 C25.8516199,37.5905626 24.5829961,33.7433447 25.716627,30.2262447 C26.850258,26.7091447 30.1258691,24.3296667 33.8176606,24.3413864 C36.6467874,24.3288072 39.29258,25.7413618 40.8581623,28.1003039 L41.0165736,28.3293578 Z" id="Combined-Shape" fill="#FFC800"></path>
    </g>
</svg>