<?xml version="1.0" encoding="UTF-8"?>
<svg width="80px" height="80px" viewBox="0 0 80 80" version="1.1" xmlns="http://www.w3.org/2000/svg" xmlns:xlink="http://www.w3.org/1999/xlink">
    <!-- Generator: Sketch 55.2 (78181) - https://sketchapp.com -->
    <title>icons/phone/ic_call_take</title>
    <desc>Created with Sketch.</desc>
    <defs>
        <path d="M50.2391304,43.3043478 L58,50.9130435 C56.0217391,55.173913 53.1304348,57 49.173913,57 C44.6086957,57 38.9782609,54.1086957 32.4347826,47.5652174 C25.7391304,41.0217391 23,35.3913043 23,30.826087 C23,26.8695652 24.826087,23.9782609 29.0869565,22 L36.6956522,29.7608696 L31.2173913,35.2391304 L44.6086957,48.7826087 L50.2391304,43.3043478 Z" id="path-1"></path>
    </defs>
    <g id="icons/phone/ic_call_take" stroke="none" stroke-width="1" fill="none" fill-rule="evenodd">
        <mask id="mask-2" fill="white">
            <use xlink:href="#path-1"></use>
        </mask>
        <use id="ICON_PHONE_025" fill="#FFFFFF" xlink:href="#path-1"></use>
    </g>
</svg>