<?xml version="1.0" encoding="UTF-8"?>
<svg width="80px" height="80px" viewBox="0 0 80 80" version="1.1" xmlns="http://www.w3.org/2000/svg" xmlns:xlink="http://www.w3.org/1999/xlink">
    <!-- Generator: Sketch 55.2 (78181) - https://sketchapp.com -->
    <title>icons/weather/ic_cloudy_partly_thunderstorm</title>
    <desc>Created with Sketch.</desc>
    <g id="icons/weather/ic_cloudy_partly_thunderstorm" stroke="none" stroke-width="1" fill="none" fill-rule="evenodd">
        <path d="M23.1830832,59.9788936 L21.1456474,62.5259037 C20.9199952,62.8156536 20.5758267,62.9886236 20.2084269,62.9969261 C19.9192454,63.0203752 19.6354965,62.9087135 19.4400225,62.6945413 C19.1969981,62.510355 19.0393968,62.2353692 19.0034291,61.9327643 C18.9801675,61.6223409 19.07589,61.3146896 19.2712064,61.0721308 L21.3086422,58.5251207 C21.5150526,58.2501578 21.8377989,58.0868059 22.181829,58.0831737 C22.6288644,58.0896383 23.0367098,58.3393652 23.2453366,58.7343677 C23.4539633,59.1293702 23.4300898,59.6066345 23.1830832,59.9788936 Z M30.4596398,50.8957206 L26.1635608,56.2688652 C25.9395635,56.5606197 25.5943651,56.7341073 25.2263403,56.7398876 C24.9535576,56.7157769 24.6931927,56.614967 24.4753997,56.449133 C24.2349591,56.2432884 24.0862764,55.9504213 24.0620912,55.6350202 C24.0444951,55.3315577 24.1541725,55.0344776 24.364796,54.8150923 L28.660875,49.4303175 C28.8440249,49.1870942 29.1203831,49.0311485 29.4234581,49.0000007 L29.5340618,49.0000007 C29.8087212,49.0045979 30.0743951,49.0985062 30.2908237,49.2674949 C30.5316922,49.4560918 30.6885363,49.7318457 30.7274171,50.035087 C30.7506787,50.3455105 30.6549562,50.6531617 30.4596398,50.8957206 Z M49.3030107,56.3444614 L44.3840585,62.5200886 C44.1613252,62.8102641 43.8186282,62.9835711 43.4526592,62.991111 C42.8624658,63.0191722 42.3523675,62.5834992 42.2884102,61.9967303 C42.2651485,61.6863069 42.3608711,61.3786556 42.5561874,61.1360968 L47.5042459,54.9546545 C47.6906072,54.7121809 47.9683437,54.5566447 48.2726503,54.5243377 L48.3774327,54.5243377 C48.6522456,54.528081 48.9181843,54.6220829 49.1341946,54.7918319 C49.3793249,54.9741615 49.5374893,55.2501299 49.570788,55.5536089 C49.598869,55.8433515 49.5013933,56.1312358 49.3030107,56.3444614 Z M53.7446209,50.8957206 L52.5803718,52.3494935 C52.3547196,52.6392434 52.0105511,52.8122134 51.6431513,52.8205159 C51.4034151,52.8421612 51.167103,52.7520284 51.0028143,52.576282 L50.9620656,52.5297613 C50.4608251,52.1281499 50.3800595,51.3968225 50.781607,50.8957206 L51.9458561,49.4361326 C52.1401648,49.1901562 52.4256108,49.0329075 52.7375454,49 L52.8481491,49 C53.1103238,48.9996981 53.3640816,49.0924382 53.5641622,49.2616799 C54.0654027,49.6632913 54.1461684,50.3946186 53.7446209,50.8957206 Z" id="Combined-Shape" fill="#FFFFFF"></path>
        <path d="M53.8606309,24.1387256 L53.6916968,24.1387256 L53.6159677,23.9901248 C50.9983806,19.1955642 45.6589244,16.458912 40.1526821,17.0897347 C34.6464398,17.7205574 30.0932619,21.5905594 28.6719745,26.8478336 L28.6078961,27.099312 L28.3399317,27.0593041 C27.9543754,27.002997 27.5645212,26.980047 27.1748689,26.990719 C22.1077287,26.9907191 18,31.0209545 18,35.9925018 C18,40.9640491 22.1077287,44.9942845 27.1748689,44.9942846 L33.7050456,44.9942846 C34.3484919,44.9942846 34.8701083,44.4825087 34.8701083,43.8512011 C34.8701083,43.2198935 34.3484919,42.7081175 33.7050456,42.7081175 L27.1515677,42.7081175 C23.3713202,42.7081175 20.3068241,39.701434 20.3068241,35.9925018 C20.3068241,32.2835697 23.3713202,29.2768861 27.1515677,29.2768861 C27.8307402,29.2591806 28.5076002,29.3617952 29.1496503,29.5798032 L30.4020927,29.974167 L30.5768521,28.6710518 C31.4841939,23.3088557 36.1752481,19.3538348 41.7148519,19.2806207 C46.1429134,19.2804203 50.1559903,21.8381425 51.9557533,25.8076276 L52.2994469,26.4877623 L53.4645096,26.4248927 C58.0490651,26.4122665 61.7760139,30.0484345 61.7888829,34.5465012 C61.8017518,39.0445678 58.0956676,42.7012068 53.5111121,42.7138329 L48.2683298,42.7138329 C47.6248834,42.7138329 47.103267,43.2256089 47.103267,43.8569165 C47.103267,44.4882241 47.6248834,45 48.2683298,45 L53.3654793,45 C59.1426625,44.9986375 63.8625614,40.4732792 63.9970621,34.8066202 C64.1315628,29.1399612 59.6314868,24.4039417 53.8606309,24.1387256 Z" id="weather_ICON_WEATHER_11" fill="#CED8E6"></path>
        <path d="M44.8077008,49.0810714 L38.9371409,49.0810714 L44.7489952,41.9618695 C45.1421834,41.4366864 45.0659449,40.7031618 44.5728784,40.2673722 C44.3358448,40.0679701 44.0258931,39.9735733 43.7159817,40.0064016 C43.4060704,40.0392299 43.1235754,40.1963834 42.9349922,40.4408703 L34,51.3943783 L39.8705599,51.3943783 L34.3522336,58.1550177 C34.0609733,58.4878406 33.9950461,58.9580469 34.1838187,59.3561881 C34.3725913,59.7543293 34.780931,60.0063068 35.226947,60 C35.5968048,59.9901552 35.9422401,59.815752 36.1662366,59.525652 L44.8077008,49.0810714 Z" id="Path" fill="#FFC800"></path>
    </g>
</svg>