<?xml version="1.0" encoding="UTF-8"?>
<svg width="80px" height="80px" viewBox="0 0 80 80" version="1.1" xmlns="http://www.w3.org/2000/svg" xmlns:xlink="http://www.w3.org/1999/xlink">
    <!-- Generator: Sketch 55.2 (78181) - https://sketchapp.com -->
    <title>icons/gen/ic_circle</title>
    <desc>Created with Sketch.</desc>
    <g id="icons/gen/ic_circle" stroke="none" stroke-width="1" fill="none" fill-rule="evenodd">
        <circle id="Oval" fill="#4C4C4C" cx="36.2875" cy="40.2875" r="24"></circle>
    </g>
</svg>