<?xml version="1.0" encoding="UTF-8"?>
<svg width="80px" height="80px" viewBox="0 0 80 80" version="1.1" xmlns="http://www.w3.org/2000/svg" xmlns:xlink="http://www.w3.org/1999/xlink">
    <!-- Generator: Sketch 55.2 (78181) - https://sketchapp.com -->
    <title>icons/weather/ic_cloudy_partly_slightsleet</title>
    <desc>Created with Sketch.</desc>
    <g id="icons/weather/ic_cloudy_partly_slightsleet" stroke="none" stroke-width="1" fill="none" fill-rule="evenodd">
        <path d="M37.0324444,53.0469716 C37.0398754,53.5803666 36.6888286,54.0514068 36.1786536,54.1926018 C35.6684785,54.3337969 35.1281437,54.1094538 34.8644897,53.6469706 C34.6008358,53.1844874 34.6805125,52.6007764 35.0582738,52.2273104 C35.2638497,51.9940134 35.5618467,51.8652372 35.8711676,51.8760271 C36.1795857,51.8699973 36.4756895,51.9979555 36.6840613,52.2273104 C36.9028624,52.4435025 37.0280814,52.7381124 37.0324444,53.0469716 Z M31.2260815,50.1196103 C31.2260815,50.7663051 30.7061392,51.2905548 30.0647837,51.2905548 C29.4234283,51.2905548 28.9035069,50.7663051 28.9035069,50.1196103 C28.8959947,49.8083251 29.0231567,49.5091435 29.25189,49.2999491 C29.4745988,49.0985605 29.765792,48.9915999 30.0647837,49.0013583 C30.369662,48.9985247 30.6657532,49.1042633 30.900903,49.2999491 C31.111193,49.5199305 31.2278808,49.8140786 31.2260815,50.1196103 Z M28.3228895,55.9743329 C28.3228895,56.6210277 27.8029472,57.1452774 27.1615918,57.1452774 C26.5202363,57.1452774 26.000315,56.6210277 26.000315,55.9743329 C25.9928028,55.6630476 26.1199648,55.363866 26.348698,55.1546717 C26.5714069,54.9532831 26.8626001,54.8463224 27.1615918,54.8560809 C27.4664701,54.8532472 27.7625612,54.9589859 27.9977111,55.1546717 C28.208001,55.3746531 28.3246888,55.6688011 28.3228895,55.9743329 Z M31.2260815,61.8290555 C31.2260815,62.4757503 30.7061392,63 30.0647837,63 C29.4234283,63 28.9035069,62.4757503 28.9035069,61.8290555 C28.8959947,61.5177702 29.0231567,61.2185886 29.25189,61.0093943 C29.4745988,60.8080057 29.765792,60.701045 30.0647837,60.7108035 C30.369662,60.7079698 30.6657532,60.8137085 30.900903,61.0093943 C31.111193,61.2293756 31.2278808,61.5235237 31.2260815,61.8290555 Z M38.4840403,58.9016942 C38.4840403,59.548389 37.964119,60.0726387 37.3227635,60.0726387 C36.6814081,60.0726387 36.1614868,59.548389 36.1614868,58.9016942 C36.1539745,58.5904089 36.2811366,58.2912273 36.5098698,58.082033 C36.7266821,57.886237 37.0085066,57.7796729 37.299538,57.7834422 C37.6044163,57.7806085 37.9005075,57.8863472 38.1356573,58.082033 C38.3544584,58.2982251 38.4796774,58.592835 38.4840403,58.9016942 Z M44.2904242,55.9743329 C44.2904242,56.6210277 43.7705029,57.1452774 43.1291474,57.1452774 C42.487792,57.1452774 41.9678706,56.6210277 41.9678706,55.9743329 C41.9575436,55.676983 42.0737555,55.3893611 42.2872218,55.1839453 L42.3336728,55.1429623 C42.5374142,54.9187623 42.8276879,54.7948497 43.1291474,54.8033884 C43.4375655,54.7973586 43.7336694,54.9253167 43.9420412,55.1546717 C44.1608423,55.3708638 44.2860612,55.6654737 44.2904242,55.9743329 Z M45.7420202,50.1196103 C45.7420202,50.7663051 45.2220988,51.2905548 44.5807434,51.2905548 C43.9393879,51.2905548 43.4194666,50.7663051 43.4194666,50.1196103 C43.4119544,49.8083251 43.5391164,49.5091435 43.7678496,49.2999491 C43.9879039,49.0941393 44.280964,48.9864929 44.5807434,49.0013583 C44.8936227,49.0002845 45.196494,49.1124696 45.4342818,49.3175133 C45.6465907,49.5277434 45.758736,49.8200418 45.7420202,50.1196103 Z M53,51.583291 C53,52.2299858 52.4800787,52.7542355 51.8387232,52.7542355 C51.1973678,52.7542355 50.6774465,52.2299858 50.6774465,51.583291 C50.6598202,51.270127 50.7887719,50.9667348 51.0258295,50.7636298 C51.2426417,50.5678337 51.5244663,50.4612697 51.8154977,50.4650389 C52.120376,50.4622053 52.4164672,50.5679439 52.651617,50.7636298 C52.8704181,50.9798218 52.995637,51.2744318 53,51.583291 Z M51.548404,58.9016942 C51.548404,59.548389 51.0284827,60.0726387 50.3871273,60.0726387 C49.7457718,60.0726387 49.2258505,59.548389 49.2258505,58.9016942 C49.2155235,58.6043443 49.3317353,58.3167224 49.5452016,58.1113066 L49.5916527,58.0703236 C49.7953941,57.8461236 50.0856677,57.722211 50.3871273,57.7307497 C50.6955453,57.7247199 50.9916492,57.852678 51.200021,58.082033 C51.4188221,58.2982251 51.5440411,58.592835 51.548404,58.9016942 Z M45.7420202,61.8290555 C45.7420202,62.4757503 45.2220988,63 44.5807434,63 C43.9393879,63 43.4194666,62.4757503 43.4194666,61.8290555 C43.4091396,61.5317056 43.5253514,61.2440837 43.7388177,61.0386679 L43.7852688,60.9976849 C43.9890102,60.7734849 44.2792838,60.6495723 44.5807434,60.658111 C44.8891615,60.6520812 45.1852653,60.7800393 45.3936371,61.0093943 C45.6124382,61.2255863 45.7376572,61.5201963 45.7420202,61.8290555 Z" id="Combined-Shape" fill="#FFFFFF"></path>
        <path d="M53.842475,24.1401831 L53.6736264,24.1401831 L53.5979356,23.9915519 C50.9816738,19.1960125 45.6449209,16.4588015 40.1414664,17.089753 C34.6380119,17.7207045 30.0871392,21.5914966 28.6665714,26.8498442 L28.6025254,27.1013739 L28.3346966,27.0613578 C27.9493356,27.0050393 27.5596787,26.9820846 27.1702238,26.9927588 C22.105649,26.9927589 18,31.0238171 18,35.9963794 C18,40.9689417 22.105649,45 27.1702238,45 L53.3708634,45 C59.1451218,44.9986373 63.862631,40.472355 63.9970636,34.8045391 C64.1314962,29.1367231 59.6336986,24.3997367 53.8657644,24.1344665 L53.842475,24.1401831 Z M53.347574,42.7192283 L27.1469343,42.7192283 C23.3686008,42.7192283 20.3056563,39.7117853 20.3056563,36.002096 C20.3056563,32.2924067 23.3686008,29.2851093 27.1469343,29.2851092 C27.825763,29.2674001 28.5022803,29.3700357 29.1440053,29.5880882 L30.3958136,29.9825325 L30.5704845,28.6791512 C31.4748475,23.3135925 36.164186,19.3547999 41.7028452,19.2810863 C46.1286648,19.2810863 50.13971,21.8391303 51.9385618,25.8094258 L52.2820813,26.4896994 L53.4465542,26.4268169 C56.4107401,26.4441768 59.140328,28.0128622 60.6071087,30.5419644 C62.0738893,33.0710666 62.0550238,36.176355 60.5576186,38.6880973 C59.0602133,41.1998397 56.3117599,42.7364427 53.347574,42.7192283 Z" id="weather_ICON_WEATHER_07" fill="#CED8E6" fill-rule="nonzero"></path>
    </g>
</svg>