<?xml version="1.0" encoding="UTF-8"?>
<svg width="80px" height="80px" viewBox="0 0 80 80" version="1.1" xmlns="http://www.w3.org/2000/svg" xmlns:xlink="http://www.w3.org/1999/xlink">
    <!-- Generator: Sketch 55.2 (78181) - https://sketchapp.com -->
    <title>icons/phone/ic_call_conference</title>
    <desc>Created with Sketch.</desc>
    <defs>
        <path d="M29.1111111,49.0037037 L35.1851852,49.0037037 L35.1851852,60.3925926 C33.8185185,60.8481481 32.7555556,61 31.5407407,61 C29.1111111,61 26.9851852,59.937037 25.162963,58.1148148 C21.9740741,55.0777778 20,48.8518519 20,40.5 C20,32.1481481 21.9740741,25.9222222 25.162963,22.8851852 C26.9851852,21.062963 29.1111111,20 31.5407407,20 C32.7555556,20 33.9703704,20 35.1851852,20.4555556 L35.1851852,31.8444444 L29.1111111,31.8444444 L29.1111111,49.0037037 Z M38.9814815,47.1814815 L33.6666667,47.1814815 L33.6666667,46.7259259 C33.6666667,43.2333333 35.337037,41.2592593 38.2222222,41.2592593 C39.7407407,41.2592593 41.1074074,41.8666667 41.8666667,43.0814815 C40.5,44.1444444 39.437037,45.5111111 38.9814815,47.1814815 Z M38.2222222,33.6666667 C39.8925926,33.6666667 41.2592593,35.0333333 41.2592593,36.7037037 C41.2592593,38.3740741 39.8925926,39.7407407 38.2222222,39.7407407 C36.5518519,39.7407407 35.1851852,38.3740741 35.1851852,36.7037037 C35.1851852,35.0333333 36.5518519,33.6666667 38.2222222,33.6666667 Z M39.7407407,51.737037 L39.7407407,50.8259259 C39.7407407,45.8148148 42.7777778,42.6259259 47.3333333,42.6259259 C51.8888889,42.6259259 54.7740741,45.8148148 54.7740741,50.8259259 L54.7740741,51.737037 L39.7407407,51.737037 Z M47.4851852,41.1074074 C44.9037037,41.1074074 42.9296296,39.1333333 42.9296296,36.5518519 C42.9296296,34.1222222 45.0555556,32.1481481 47.4851852,32.1481481 C49.9148148,32.1481481 52.0407407,34.1222222 52.0407407,36.5518519 C51.8888889,39.1333333 49.9148148,41.1074074 47.4851852,41.1074074 Z M56.4444444,41.2592593 C59.3296296,41.2592593 61,43.2333333 61,46.7259259 L61,47.1814815 L55.837037,47.1814815 C55.3814815,45.5111111 54.3185185,43.9925926 52.9518519,43.0814815 C53.5592593,41.8666667 54.7740741,41.2592593 56.4444444,41.2592593 Z M56.4444444,39.5888889 C54.7740741,39.5888889 53.4074074,38.2222222 53.4074074,36.5518519 C53.4074074,34.8814815 54.7740741,33.5148148 56.4444444,33.5148148 C58.1148148,33.5148148 59.4814815,34.8814815 59.4814815,36.5518519 C59.4814815,38.3740741 58.1148148,39.5888889 56.4444444,39.5888889 Z" id="path-1"></path>
    </defs>
    <g id="icons/phone/ic_call_conference" stroke="none" stroke-width="1" fill="none" fill-rule="evenodd">
        <mask id="mask-2" fill="white">
            <use xlink:href="#path-1"></use>
        </mask>
        <use id="ICON_PHONE_036" fill="#FFFFFF" xlink:href="#path-1"></use>
    </g>
</svg>