<?xml version="1.0" encoding="UTF-8"?>
<svg width="80px" height="80px" viewBox="0 0 80 80" version="1.1" xmlns="http://www.w3.org/2000/svg" xmlns:xlink="http://www.w3.org/1999/xlink">
    <!-- Generator: Sketch 55.2 (78181) - https://sketchapp.com -->
    <title>icons/snm/ic_comfort</title>
    <desc>Created with Sketch.</desc>
    <g id="icons/snm/ic_comfort" stroke="none" stroke-width="1" fill="none" fill-rule="evenodd">
        <path d="M38.0140731,54.6829268 L33.2223835,65 L27,62.0768293 L31.9506555,51.2439024 C29.6110245,49.1508827 28.271728,46.1461765 28.271728,42.9902439 C28.2738808,40.6462457 28.9099045,38.3473246 30.1111918,36.3414634 L35.0164284,39.7804878 L32.4048441,32.902439 C33.8750715,31.1530548 35.5102713,29.5521106 37.2873713,28.1221951 L40.7959781,32.707561 L40.7959781,25.3136585 C44.0141569,22.6654229 47.39309,20.2227779 50.9130288,18 C51.8100512,24.7404878 52.0485002,26.4829268 51.9690172,30.6097561 L46.4052071,35.195122 L51.9690172,35.195122 C52.0655884,37.49505 51.9362703,39.7989802 51.5829569,42.0731707 L44.1002,44.3658537 L50.4929043,46.6585366 C48.9472216,51.3528839 44.649917,54.5631485 39.7513444,54.6829268 L38.0140731,54.6829268 Z M32.1096215,61.9278049 L43.464336,37.3846341 L41.3523591,36.3414634 L30.0544182,60.9190244 L32.1096215,61.9278049 Z" id="ICON_SNM_022" fill="#FFFFFF"></path>
    </g>
</svg>