<?xml version="1.0" encoding="UTF-8"?>
<svg width="80px" height="80px" viewBox="0 0 80 80" version="1.1" xmlns="http://www.w3.org/2000/svg" xmlns:xlink="http://www.w3.org/1999/xlink">
    <!-- Generator: Sketch 55.2 (78181) - https://sketchapp.com -->
    <title>icons/apps/ic_deezer_colored</title>
    <desc>Created with Sketch.</desc>
    <g id="icons/apps/ic_deezer_colored" stroke="none" stroke-width="1" fill="none" fill-rule="evenodd">
        <polygon id="Path" fill="#A3DCFA" points="59.3635556 24 59.3635556 27.2568889 59.3635556 27.256 70.2222222 27.256 70.2222222 24"></polygon>
        <polygon id="Path" fill="#A3DCFA" points="59.3635556 31.4888889 70.2222222 31.4888889 70.2222222 28.2328889 59.3635556 28.2328889"></polygon>
        <polygon id="Path" fill="#F08FBA" points="35.0151111 28.2337778 35.0151111 31.4906667 35.0222222 31.4906667 45.88 31.4906667 45.88 28.2337778"></polygon>
        <polygon id="Path" fill="#A3DCFA" points="59.3635556 35.7226667 70.2222222 35.7226667 70.2222222 32.4666667 59.3635556 32.4666667"></polygon>
        <polygon id="Path" fill="#F08FBA" points="35.0151111 32.4666667 35.0151111 35.7235556 35.0222222 35.7235556 45.88 35.7235556 45.88 32.4666667"></polygon>
        <polygon id="Path" fill="#A3DCFA" points="59.3635556 39.9564444 70.2222222 39.9564444 70.2222222 36.6986667 59.3635556 36.6986667"></polygon>
        <polygon id="Path" fill="#D8E493" points="47.1893333 39.9564444 58.0444444 39.9564444 58.0444444 36.7004444 47.1893333 36.7004444"></polygon>
        <polygon id="Path" fill="#F08FBA" points="35.0151111 36.7004444 35.0151111 39.9564444 35.0222222 39.9564444 45.88 39.9564444 45.88 36.7004444"></polygon>
        <polygon id="Path" fill="#F38979" points="10.6666667 39.9564444 21.5253333 39.9564444 21.5253333 36.7004444 10.6666667 36.7004444"></polygon>
        <polygon id="Path" fill="#A3DCFA" points="59.3635556 44.1902222 70.2222222 44.1902222 70.2222222 40.9324444 59.3635556 40.9324444"></polygon>
        <polygon id="Path" fill="#D8E493" points="47.1893333 44.1902222 58.0444444 44.1902222 58.0444444 40.9333333 47.1893333 40.9333333"></polygon>
        <polygon id="Path" fill="#F08FBA" points="35.0151111 40.9333333 35.0151111 44.1902222 35.0222222 44.1902222 45.88 44.1902222 45.88 40.9333333"></polygon>
        <polygon id="Path" fill="#F38979" points="10.6666667 44.1902222 21.5253333 44.1902222 21.5253333 40.9333333 10.6666667 40.9333333"></polygon>
        <polygon id="Path" fill="#2BC1EC" points="59.3635556 48.4222222 70.2222222 48.4222222 70.2222222 45.1662222 59.3635556 45.1662222"></polygon>
        <polygon id="Path" fill="#B8CE36" points="47.1893333 48.4231111 58.0444444 48.4231111 58.0444444 45.1662222 47.1893333 45.1662222"></polygon>
        <polygon id="Path" fill="#E50083" points="35.0151111 45.1662222 35.0151111 48.4231111 35.0222222 48.4231111 45.88 48.4231111 45.88 45.1662222"></polygon>
        <polygon id="Path" fill="#FFED1C" points="22.8444444 48.4231111 33.704 48.4231111 33.704 45.1662222 22.8444444 45.1662222"></polygon>
        <polygon id="Path" fill="#E61326" points="10.6666667 48.4231111 21.5253333 48.4231111 21.5253333 45.1662222 10.6666667 45.1662222"></polygon>
        <polygon id="Path" fill="#2BC1EC" points="59.3635556 52.6568889 70.2222222 52.6568889 70.2222222 49.4 59.3635556 49.4"></polygon>
        <polygon id="Path" fill="#B8CE36" points="47.1893333 52.6568889 58.0444444 52.6568889 58.0444444 49.4 47.1893333 49.4"></polygon>
        <polygon id="Path" fill="#E50083" points="35.0151111 49.4 35.0151111 52.6568889 35.0222222 52.6568889 45.88 52.6568889 45.88 49.4"></polygon>
        <polygon id="Path" fill="#FFED1C" points="22.8444444 52.6568889 33.704 52.6568889 33.704 49.4 22.8444444 49.4"></polygon>
        <polygon id="Path" fill="#E61326" points="10.6666667 52.6568889 21.5253333 52.6568889 21.5253333 49.4 10.6666667 49.4"></polygon>
        <polygon id="Path" fill="#2BC1EC" points="59.3635556 56.8888889 70.2222222 56.8888889 70.2222222 53.6328889 59.3635556 53.6328889"></polygon>
        <polygon id="Path" fill="#B8CE36" points="47.1893333 56.8888889 58.0444444 56.8888889 58.0444444 53.6328889 47.1893333 53.6328889"></polygon>
        <polygon id="Path" fill="#E50083" points="35.0151111 53.6328889 35.0151111 56.8888889 35.0222222 56.8888889 45.88 56.8888889 45.88 53.6328889"></polygon>
        <polygon id="Path" fill="#FFED1C" points="22.8444444 56.8888889 33.704 56.8888889 33.704 53.6328889 22.8444444 53.6328889"></polygon>
        <polygon id="Path" fill="#E61326" points="10.6666667 56.8888889 21.5253333 56.8888889 21.5253333 53.6328889 10.6666667 53.6328889"></polygon>
    </g>
</svg>