<?xml version="1.0" encoding="UTF-8"?>
<svg width="80px" height="80px" viewBox="0 0 80 80" version="1.1" xmlns="http://www.w3.org/2000/svg" xmlns:xlink="http://www.w3.org/1999/xlink">
    <!-- Generator: Sketch 55.2 (78181) - https://sketchapp.com -->
    <title>icons/phone/ic_dial</title>
    <desc>Created with Sketch.</desc>
    <g id="icons/phone/ic_dial" stroke="none" stroke-width="1" fill="none" fill-rule="evenodd">
        <path d="M26,26 L33.6315789,26 L33.6315789,33.3650794 L26,33.3650794 L26,26 Z M26,36.7407407 L33.6315789,36.7407407 L33.6315789,44.2592593 L26,44.2592593 L26,36.7407407 Z M26,47.4814815 L33.6315789,47.4814815 L33.6315789,55 L26,55 L26,47.4814815 Z M36.6842105,26 L44.3157895,26 L44.3157895,33.3650794 L36.6842105,33.3650794 L36.6842105,26 Z M36.6842105,36.7407407 L44.3157895,36.7407407 L44.3157895,44.2592593 L36.6842105,44.2592593 L36.6842105,36.7407407 Z M36.6842105,47.4814815 L44.3157895,47.4814815 L44.3157895,55 L36.6842105,55 L36.6842105,47.4814815 Z M47.3684211,26 L55,26 L55,33.3650794 L47.3684211,33.3650794 L47.3684211,26 Z M47.3684211,36.7407407 L55,36.7407407 L55,44.2592593 L47.3684211,44.2592593 L47.3684211,36.7407407 Z M47.3684211,47.4814815 L55,47.4814815 L55,55 L47.3684211,55 L47.3684211,47.4814815 Z" id="Combined-Shape" fill="#FFFFFF"></path>
    </g>
</svg>