<?xml version="1.0" encoding="UTF-8"?>
<svg width="80px" height="80px" viewBox="0 0 80 80" version="1.1" xmlns="http://www.w3.org/2000/svg" xmlns:xlink="http://www.w3.org/1999/xlink">
    <!-- Generator: Sketch 55.2 (78181) - https://sketchapp.com -->
    <title>icons/vr/ic_doubleprevious</title>
    <desc>Created with Sketch.</desc>
    <defs>
        <polygon id="path-1" points="0.541523311 4.40687957 0.541523311 0.672235822 28.9248158 19.3454545 0.541523311 37.8692875 0.541523311 34.1346438 23.397543 19.1960688"></polygon>
        <polygon id="path-3" points="0.541523311 4.40687957 0.541523311 0.672235822 28.9248158 19.3454545 0.541523311 37.8692875 0.541523311 34.1346438 23.397543 19.1960688"></polygon>
    </defs>
    <g id="icons/vr/ic_doubleprevious" stroke="none" stroke-width="1" fill="none" fill-rule="evenodd">
        <g id="icons/vr/ic_next" transform="translate(54.509091, 40.000000) scale(-1, 1) translate(-54.509091, -40.000000) translate(40.000000, 21.000000)">
            <mask id="mask-2" fill="white">
                <use xlink:href="#path-1"></use>
            </mask>
            <use id="ICON_VOICERECO_011" fill="#FFFFFF" xlink:href="#path-1"></use>
        </g>
        <g id="icons/vr/ic_next" transform="translate(10.000000, 21.000000)">
            <mask id="mask-4" fill="white">
                <use xlink:href="#path-3"></use>
            </mask>
            <use id="ICON_VOICERECO_011" fill="#FFFFFF" transform="translate(14.733170, 19.270762) scale(-1, 1) translate(-14.733170, -19.270762) " xlink:href="#path-3"></use>
        </g>
    </g>
</svg>