<?xml version="1.0" encoding="UTF-8"?>
<svg width="80px" height="80px" viewBox="0 0 80 80" version="1.1" xmlns="http://www.w3.org/2000/svg" xmlns:xlink="http://www.w3.org/1999/xlink">
    <!-- Generator: Sketch 55.2 (78181) - https://sketchapp.com -->
    <title>icons/upgradability/ic_error_update</title>
    <desc>Created with Sketch.</desc>
    <g id="icons/upgradability/ic_error_update" stroke="none" stroke-width="1" fill="none" fill-rule="evenodd">
        <path d="M47.76625,54.7147835 C46.6227053,53.2232987 46.001107,51.3860395 46,49.4942758 C46.0146169,44.9574481 49.4821187,41.2085402 53.93125,40.9193629 L53.93125,38 L60.32125,42.0413141 L53.93125,46.3573917 L53.93125,43.2090592 C51.6299677,43.4005589 49.6230941,44.8755646 48.720965,47.0384985 C47.8188358,49.2014324 48.1704181,51.6951327 49.63375,53.5126929 L47.76625,54.7147835 Z M56.125,58.0806371 L56.125,61 L49.735,56.9586859 L56.125,52.6426083 L56.125,55.7794923 C59.3140118,55.4778186 61.7521235,52.7535414 61.75,49.4942758 C61.7516414,48.0360232 61.2855408,46.6170708 60.4225,45.4529617 L62.245,44.3081135 C63.3812448,45.7896868 63.9988966,47.6148961 64,49.4942758 C63.9988181,54.0171158 60.5587895,57.7678877 56.125,58.0806371 Z" id="ICON_UPGRADABILITY_008" fill="#FFFFFF"></path>
        <path d="M38.5455172,40.8213793 L24.2758621,55 L22,52.7241379 L36.2582759,38.5341379 L22,24.2758621 L24.2758621,22 L38.5,36.2696552 L52.7241379,22 L55,24.2758621 L40.7758621,38.5341379 L45.3275862,43.0858621 C44.7256758,44.0720229 44.2731779,45.141912 43.9848276,46.2606897 L38.5455172,40.8213793 Z" id="ICON_UPGRADABILITY_008" fill="#FF0000"></path>
    </g>
</svg>