<?xml version="1.0" encoding="UTF-8"?>
<svg width="80px" height="80px" viewBox="0 0 80 80" version="1.1" xmlns="http://www.w3.org/2000/svg" xmlns:xlink="http://www.w3.org/1999/xlink">
    <!-- Generator: Sketch 55.2 (78181) - https://sketchapp.com -->
    <title>icons/settings/ic_esc_on</title>
    <desc>Created with Sketch.</desc>
    <defs>
        <path d="M25,54.44 C25,54.744 25.15,54.896 25.9,55.504 L30.4,59 L24.4,59 L21.4,56.72 C19,54.744 19,54.592 19,53.832 C19,52.92 19.6,52.312 21.25,51.704 L31.6,48.056 C32.2,47.904 32.5,47.6 32.5,47.296 C32.5,46.992 32.35,46.84 31.6,46.232 L26.5,42.28 L32.5,42.28 L36.1,45.168 C38.65,47.144 38.65,47.144 38.65,47.904 C38.65,48.816 38.05,49.424 36.4,50.032 L26.05,53.68 C25.3,53.832 25,54.136 25,54.44 Z M52,32.4 L52,40.608 L46.15,40.608 L46.15,37.568 L32.35,37.568 L32.35,40.608 L26.5,40.608 L26.5,32.4 C26.5,31.032 26.8,30.12 27.25,29.36 L30.25,24.496 C32.05,21.76 33.55,21 37,21 L41.5,21 C44.95,21 46.45,21.608 48.1,24.496 L51.1,29.36 C51.7,30.12 52,31.032 52,32.4 Z M29.5,28.6 L49,28.6 L46.9,25.104 C45.55,22.976 44.2,22.216 41.5,22.216 L36.85,22.216 C34.15,22.216 32.8,22.976 31.45,25.104 L29.5,28.6 Z M44.5,54.44 C44.5,54.744 44.65,54.896 45.4,55.504 L49.9,59 L44.05,59 L41.05,56.72 C38.5,54.744 38.5,54.592 38.5,53.832 C38.5,52.92 39.1,52.312 40.75,51.704 L51.1,48.056 C51.7,47.904 52,47.6 52,47.296 C52,46.992 51.85,46.84 51.1,46.232 L46,42.28 L51.85,42.28 L55.45,45.168 C58,47.144 58,47.144 58,47.904 C58,48.816 57.4,49.424 55.75,50.032 L45.4,53.68 C44.8,53.832 44.5,54.136 44.5,54.44 Z" id="path-1"></path>
    </defs>
    <g id="icons/settings/ic_esc_on" stroke="none" stroke-width="1" fill="none" fill-rule="evenodd">
        <mask id="mask-2" fill="white">
            <use xlink:href="#path-1"></use>
        </mask>
        <use id="ICON_MEX_016" fill="#FFFFFF" xlink:href="#path-1"></use>
    </g>
</svg>