<?xml version="1.0" encoding="UTF-8"?>
<svg width="80px" height="80px" viewBox="0 0 80 80" version="1.1" xmlns="http://www.w3.org/2000/svg" xmlns:xlink="http://www.w3.org/1999/xlink">
    <!-- Generator: Sketch 55.2 (78181) - https://sketchapp.com -->
    <title>icons/media/ic_folder</title>
    <desc>Created with Sketch.</desc>
    <defs>
        <path d="M53.0695793,55 L25.9417476,55 C23.2799353,55 22,53.6222222 22,50.9240741 L22,24 L33.066343,24 C34.7880259,24 35.7847896,24.5051852 37.4951456,26.0207407 L41.6634304,29.7407407 L53.0695793,29.7407407 C55.7200647,29.7407407 57,31.0266667 57,33.7362963 L57,50.9240741 C57,53.6222222 55.7200647,55 53.0695793,55 Z" id="path-1"></path>
    </defs>
    <g id="icons/media/ic_folder" stroke="none" stroke-width="1" fill="none" fill-rule="evenodd">
        <mask id="mask-2" fill="white">
            <use xlink:href="#path-1"></use>
        </mask>
        <use id="ICON_MEDIA_017" fill="#FFFFFF" xlink:href="#path-1"></use>
    </g>
</svg>