<?xml version="1.0" encoding="UTF-8"?>
<svg width="80px" height="80px" viewBox="0 0 80 80" version="1.1" xmlns="http://www.w3.org/2000/svg" xmlns:xlink="http://www.w3.org/1999/xlink">
    <!-- Generator: Sketch 55.2 (78181) - https://sketchapp.com -->
    <title>icons/radio/ic_fraq_freq</title>
    <desc>Created with Sketch.</desc>
    <defs>
        <path d="M30,53 L30,24 L51.7794823,38.5 L30,53 Z M32.1399808,48.7312 L47.7641419,38.5 L32.1399808,28.2688 L32.1399808,48.7312 Z M54,51.8052 L51.7794823,51.8052 L51.7794823,25.16 L53.9769895,25.16 L54,51.8052 Z" id="path-1"></path>
    </defs>
    <g id="icons/radio/ic_fraq_freq" stroke="none" stroke-width="1" fill="none" fill-rule="evenodd">
        <mask id="mask-2" fill="white">
            <use xlink:href="#path-1"></use>
        </mask>
        <use id="ICON_RADIO_011" fill="#FFFFFF" xlink:href="#path-1"></use>
    </g>
</svg>