<?xml version="1.0" encoding="UTF-8"?>
<svg width="80px" height="80px" viewBox="0 0 80 80" version="1.1" xmlns="http://www.w3.org/2000/svg" xmlns:xlink="http://www.w3.org/1999/xlink">
    <!-- Generator: Sketch 55.2 (78181) - https://sketchapp.com -->
    <title>icons/eepe/ic_gearchanges</title>
    <desc>Created with Sketch.</desc>
    <defs>
        <path d="M29,52.137462 L52,52.137462 L52,55 L29,55 L29,52.137462 Z M44.7166667,38.0959601 L44.1953333,46.0056044 L36.7586667,46.0056044 L39.1353333,38.0356961 C35.2815969,36.6900737 32.9736407,32.8135773 33.6684928,28.8534649 C34.3633448,24.8933525 37.859157,22 41.949,22 C46.038843,22 49.5346552,24.8933525 50.2295072,28.8534649 C50.9243593,32.8135773 48.6164031,36.6900737 44.7626667,38.0356961 L44.7166667,38.0959601 Z M33.6,47.6176653 L47.4,47.6176653 L47.4,50.4802032 L33.6,50.4802032 L33.6,47.6176653 Z" id="path-1"></path>
    </defs>
    <g id="icons/eepe/ic_gearchanges" stroke="none" stroke-width="1" fill="none" fill-rule="evenodd">
        <mask id="mask-2" fill="white">
            <use xlink:href="#path-1"></use>
        </mask>
        <use id="ICON_ECO_011" fill="#FFFFFF" xlink:href="#path-1"></use>
    </g>
</svg>