<?xml version="1.0" encoding="UTF-8"?>
<svg width="100px" height="100px" viewBox="0 0 100 100" version="1.1" xmlns="http://www.w3.org/2000/svg" xmlns:xlink="http://www.w3.org/1999/xlink">
    <!-- Generator: Sketch 55.2 (78181) - https://sketchapp.com -->
    <title>icons/clim/ic_intensity_more</title>
    <desc>Created with Sketch.</desc>
    <defs>
        <path d="M44.8206897,51.5555556 C47.0275862,52.2222222 53.4275862,53.1111111 53.4275862,59.1111111 C53.4275862,64.8888889 48.1310345,70 41.5103448,70 C39.3034483,70 37.537931,68.6666667 37.537931,66.4444444 C37.537931,62.2222222 41.2896552,59.5555556 41.2896552,56.2222222 C41.2896552,54.6666667 40.4068966,53.7777778 39.0827586,53.7777778 C38.2,53.7777778 37.537931,54.2222222 36.8758621,55.7777778 C36.2137931,58 35.3310345,64.6666667 29.5931034,64.6666667 C23.8551724,64.6666667 19,59.3333333 19,52.6666667 C19,50.4444444 20.1034483,48.6666667 22.3103448,48.6666667 C26.5034483,48.6666667 29.1517241,52.4444444 32.462069,52.4444444 C34.0068966,52.4444444 34.8896552,51.7777778 34.8896552,50.4444444 C34.8896552,49.5555556 34.4482759,48.8888889 32.6827586,48.2222222 C30.4758621,47.5555556 24.0758621,46.6666667 24.0758621,40.8888889 C24.0758621,35.1111111 29.5931034,30 35.9931034,30 C38.2,30 39.9655172,31.1111111 39.9655172,33.3333333 C39.9655172,37.3333333 36.2137931,40.2222222 36.2137931,43.5555556 C36.2137931,45.1111111 36.8758621,46 38.2,46 C39.5241379,46 39.9655172,45.5555556 40.4068966,43.7777778 C41.0689655,41.5555556 41.9517241,35.1111111 47.9103448,35.1111111 C53.6482759,35.1111111 58.5034483,40.4444444 58.5034483,47.1111111 C58.5034483,49.3333333 57.1793103,51.1111111 54.9724138,51.1111111 C51,51.1111111 48.3517241,47.3333333 44.8206897,47.3333333 C43.2758621,47.3333333 42.1724138,48.2222222 42.1724138,49.5555556 C42.6137931,50.4444444 43.0551724,51.1111111 44.8206897,51.5555556 Z M74.1724138,52 L74.1724138,60.8888889 L71.9655172,60.8888889 L71.9655172,52 L63.137931,52 L63.137931,50 L71.9655172,50 L71.9655172,41.1111111 L74.1724138,41.1111111 L74.1724138,50 L83,50 L83,52 L74.1724138,52 Z" id="path-1"></path>
    </defs>
    <g id="icons/clim/ic_intensity_more" stroke="none" stroke-width="1" fill="none" fill-rule="evenodd">
        <mask id="mask-2" fill="white">
            <use xlink:href="#path-1"></use>
        </mask>
        <use id="ICON_CLIM_03" fill="#FFFFFF" xlink:href="#path-1"></use>
    </g>
</svg>