<?xml version="1.0" encoding="UTF-8"?>
<svg width="100px" height="100px" viewBox="0 0 100 100" version="1.1" xmlns="http://www.w3.org/2000/svg" xmlns:xlink="http://www.w3.org/1999/xlink">
    <!-- Generator: Sketch 55.2 (78181) - https://sketchapp.com -->
    <title>icons/clim/ic_intensity_less</title>
    <desc>Created with Sketch.</desc>
    <defs>
        <path d="M40.2928661,51.82 C42.2659138,52.48 47.3081469,53.14 47.3081469,57.98 C47.3081469,62.82 42.9235964,67 37.6621359,67 C35.9083157,67 34.373723,65.9 34.373723,64.14 C34.373723,60.84 37.6621359,58.42 37.6621359,55.78 C37.6621359,54.46 37.0044533,53.8 35.6890882,53.8 C34.8121781,53.8 34.373723,54.02 33.935268,55.56 C33.2775854,57.54 32.6199029,62.82 27.7968974,62.82 C23.1931194,62.82 19.0277965,58.42 19.0277965,53.14 C18.8085689,50.94 19.9047065,49.4 21.6585267,49.4 C24.9469396,49.4 27.1392148,52.48 29.9891726,52.48 C31.3045377,52.48 32.1814478,51.82 32.1814478,50.72 C32.1814478,49.84 31.9622203,49.4 30.4276276,48.96 C28.4545799,48.52 23.1931194,47.86 23.1931194,43.02 C23.1931194,38.18 27.5776698,34 32.8391304,34 C34.5929506,34 36.1275432,35.1 36.1275432,36.86 C36.1275432,40.16 32.8391304,42.58 32.8391304,45.22 C32.8391304,46.54 33.4968129,47.2 34.5929506,47.2 C35.6890882,47.2 36.1275432,46.98 36.5659983,45.44 C37.2236808,43.46 37.8813634,38.18 42.7043689,38.18 C47.3081469,38.18 51.4734698,42.58 51.4734698,47.86 C51.4734698,49.62 50.3773322,51.16 48.623512,51.16 C45.3350992,51.16 43.1428239,48.08 40.2928661,48.08 C38.977501,48.08 38.1005909,48.74 38.1005909,49.84 C38.539046,51.16 38.7582735,51.38 40.2928661,51.82 Z M58.4887505,51.38 L58.4887505,49.4 L78,49.4 L78,51.38 L58.4887505,51.38 Z" id="path-1"></path>
    </defs>
    <g id="icons/clim/ic_intensity_less" stroke="none" stroke-width="1" fill="none" fill-rule="evenodd">
        <mask id="mask-2" fill="white">
            <use xlink:href="#path-1"></use>
        </mask>
        <use id="ICON_CLIM_02" fill="#FFFFFF" xlink:href="#path-1"></use>
    </g>
</svg>