<?xml version="1.0" encoding="UTF-8"?>
<svg width="80px" height="80px" viewBox="0 0 80 80" version="1.1" xmlns="http://www.w3.org/2000/svg" xmlns:xlink="http://www.w3.org/1999/xlink">
    <!-- Generator: Sketch 55.2 (78181) - https://sketchapp.com -->
    <title>icons/phone/ic_logs</title>
    <desc>Created with Sketch.</desc>
    <defs>
        <path d="M24,39.5 C24,31.0048077 31.0048077,24 39.5,24 C47.9951923,24 55,31.0048077 55,39.5 C55,47.9951923 47.9951923,55 39.5,55 C31.0048077,55 24,47.9951923 24,39.5 Z M40.3942308,38.6057692 L40.3942308,26.8317308 L38.7548077,26.8317308 L38.7548077,40.3942308 L52.1682692,40.3942308 L52.1682692,38.6057692 L40.3942308,38.6057692 L40.3942308,38.6057692 Z" id="path-1"></path>
    </defs>
    <g id="icons/phone/ic_logs" stroke="none" stroke-width="1" fill="none" fill-rule="evenodd">
        <mask id="mask-2" fill="white">
            <use xlink:href="#path-1"></use>
        </mask>
        <use id="ICON_PHONE_004" fill="#FFFFFF" xlink:href="#path-1"></use>
    </g>
</svg>