<?xml version="1.0" encoding="UTF-8"?>
<svg width="80px" height="80px" viewBox="0 0 80 80" version="1.1" xmlns="http://www.w3.org/2000/svg" xmlns:xlink="http://www.w3.org/1999/xlink">
    <!-- Generator: Sketch 55.2 (78181) - https://sketchapp.com -->
    <title>icons/adas/ic_mcv_rightside</title>
    <desc>Created with Sketch.</desc>
    <g id="icons/adas/ic_mcv_rightside" stroke="none" stroke-width="1" fill="none" fill-rule="evenodd">
        <path d="M20,39.3353279 L20,32.3476214 L22.2857143,32.3476214 L22.2857143,39.3353279 L20,39.3353279 Z M47.4285714,47.0916822 C47.5039836,48.1616769 47.1130645,49.2112002 46.3599319,49.9607202 C45.6067994,50.7102402 44.5679234,51.0836538 43.52,50.9815055 L28.4571429,50.9815055 C27.4035297,51.0905421 26.3572977,50.7135489 25.6051378,49.9538305 C24.8529779,49.1941121 24.4737711,48.1313423 24.5714286,47.0567436 L24.5714286,33.9315015 C24.4774159,32.8588283 24.8582349,31.7993902 25.6099284,31.0423958 C26.361622,30.2854014 27.4056985,29.9098959 28.4571429,30.0183859 L43.52,30.0183859 C44.5721944,29.915296 45.615257,30.2917085 46.3692867,31.0466149 C47.1233165,31.8015213 47.5110978,32.8576162 47.4285714,33.9315015 L47.4285714,47.0916822 Z M60,47.4876522 L57.7142857,47.4876522 L53.4628571,45.1584167 L49.7142857,45.1584167 L49.7142857,34.6768569 L53.4171429,34.6768569 L57.7142857,32.3476214 L60,32.3476214 L60,47.4876522 Z" id="ICON_MVC_004" fill="#FFFFFF"></path>
    </g>
</svg>