<?xml version="1.0" encoding="UTF-8"?>
<svg width="80px" height="80px" viewBox="0 0 80 80" version="1.1" xmlns="http://www.w3.org/2000/svg" xmlns:xlink="http://www.w3.org/1999/xlink">
    <!-- Generator: Sketch 55.2 (78181) - https://sketchapp.com -->
    <title>icons/gen/ic_notification_new</title>
    <desc>Created with Sketch.</desc>
    <defs>
        <path d="M52.25,41.9189189 C45.65,41.9189189 40.85,46.7374517 40.85,53.2123552 C40.85,53.965251 40.85,54.7181467 41,55.3204633 L26,55.3204633 L26,31.5289575 L33.5,31.5289575 L33.5,24 L54.5,24 L54.5,42.0694981 C53.75,41.9189189 53,41.9189189 52.25,41.9189189 Z M32,29.8725869 L26,29.8725869 L32,24 L32,29.8725869 Z M42.65,53.3629344 C42.65,47.9420849 47,43.7258687 52.25,43.7258687 C57.65,43.7258687 62,48.0926641 62,53.3629344 C62,58.6332046 57.65,63 52.25,63 C47,63 42.65,58.6332046 42.65,53.3629344 Z M53.9,58.4826255 C53.9,57.5791506 53.15,56.976834 52.25,56.976834 C51.35,56.976834 50.6,57.7297297 50.6,58.4826255 C50.6,59.3861004 51.35,60.1389961 52.25,60.1389961 C53.15,60.1389961 53.9,59.3861004 53.9,58.4826255 Z M51.5,55.6216216 L53,55.6216216 L53.15,50.953668 L53.15,46.2857143 L51.35,46.2857143 L51.35,50.953668 L51.5,55.6216216 Z" id="path-1"></path>
    </defs>
    <g id="icons/gen/ic_notification_new" stroke="none" stroke-width="1" fill="none" fill-rule="evenodd">
        <mask id="mask-2" fill="white">
            <use xlink:href="#path-1"></use>
        </mask>
        <use id="ICON_GEN_038" fill="#FFFFFF" xlink:href="#path-1"></use>
    </g>
</svg>