<?xml version="1.0" encoding="UTF-8"?>
<svg width="80px" height="80px" viewBox="0 0 80 80" version="1.1" xmlns="http://www.w3.org/2000/svg" xmlns:xlink="http://www.w3.org/1999/xlink">
    <!-- Generator: Sketch 55.2 (78181) - https://sketchapp.com -->
    <title>icons/gen/ic_on_off</title>
    <desc>Created with Sketch.</desc>
    <g id="icons/gen/ic_on_off" stroke="none" stroke-width="1" fill="none" fill-rule="evenodd">
        <path d="M46.8387097,28.9787299 L46.8387097,26.3807353 C52.8166549,29.0628258 56.7654017,35.0082386 57,41.6800365 C57,51.4946825 49.4580645,59 39.5,59 C29.5419355,59 22,51.4946825 22,41.6800365 C22.2054804,34.9901285 26.1616329,29.0200787 32.1612903,26.3460954 L32.1612903,28.9787299 C27.5123302,31.4811813 24.5056971,36.3131537 24.2580645,41.6800365 C24.2580645,50.2014585 30.8177419,56.6906715 39.5,56.6906715 C48.1822581,56.6906715 54.7419355,50.2014585 54.7419355,41.6800365 C54.498827,36.3116883 51.4908839,31.4776106 46.8387097,28.9787299 Z M38.2806452,21 L40.5387097,21 L40.5387097,39.2783349 L38.2806452,39.2783349 L38.2806452,21 Z" id="CC_ICON_ON-OFF_01" fill="#FFFFFF"></path>
    </g>
</svg>