<?xml version="1.0" encoding="UTF-8"?>
<svg width="80px" height="80px" viewBox="0 0 80 80" version="1.1" xmlns="http://www.w3.org/2000/svg" xmlns:xlink="http://www.w3.org/1999/xlink">
    <!-- Generator: Sketch 55.2 (78181) - https://sketchapp.com -->
    <title>icons/radio/ic_preset_popup2</title>
    <desc>Created with Sketch.</desc>
    <defs>
        <path d="M26,24 L33.6628352,24 L33.6628352,31.3650794 L26,31.3650794 L26,24 Z M26,34.7407407 L33.6628352,34.7407407 L33.6628352,42.2592593 L26,42.2592593 L26,34.7407407 Z M26,45.4814815 L33.6628352,45.4814815 L33.6628352,53 L26,53 L26,45.4814815 Z M36.7279693,24 L44.3908046,24 L44.3908046,31.3650794 L36.7279693,31.3650794 L36.7279693,24 Z M36.7279693,34.7407407 L44.3908046,34.7407407 L44.3908046,42.2592593 L36.7279693,42.2592593 L36.7279693,34.7407407 Z M36.7279693,45.4814815 L44.3908046,45.4814815 L44.3908046,53 L36.7279693,53 L36.7279693,45.4814815 Z M47.4559387,24 L55.1187739,24 L55.1187739,31.3650794 L47.4559387,31.3650794 L47.4559387,24 Z M47.4559387,34.7407407 L55.1187739,34.7407407 L55.1187739,42.2592593 L47.4559387,42.2592593 L47.4559387,34.7407407 Z M47.4559387,45.4814815 L55.1187739,45.4814815 L55.1187739,53 L47.4559387,53 L47.4559387,45.4814815 Z M65.8467433,52.8465608 L59.7164751,52.8465608 L59.7164751,51.4656085 L63.394636,47.3227513 C64.0076628,46.5555556 64.467433,45.9417989 64.467433,45.1746032 C64.467433,44.1005291 63.7011494,43.6402116 62.6283525,43.6402116 C61.7088123,43.6402116 60.789272,43.7936508 59.8697318,44.2539683 L59.8697318,42.8730159 C60.9425287,42.4126984 62.0153257,42.2592593 62.9348659,42.2592593 C64.6206897,42.2592593 66,43.4867725 66,45.021164 C66,45.9417989 65.5402299,46.7089947 64.6206897,47.9365079 L61.5555556,51.4656085 L65.8467433,51.4656085 L65.8467433,52.8465608 Z" id="path-1"></path>
    </defs>
    <g id="icons/radio/ic_preset_popup2" stroke="none" stroke-width="1" fill="none" fill-rule="evenodd">
        <mask id="mask-2" fill="white">
            <use xlink:href="#path-1"></use>
        </mask>
        <use id="ICON_RADIO_020B" fill="#FFFFFF" xlink:href="#path-1"></use>
    </g>
</svg>