<?xml version="1.0" encoding="UTF-8"?>
<svg width="80px" height="80px" viewBox="0 0 80 80" version="1.1" xmlns="http://www.w3.org/2000/svg" xmlns:xlink="http://www.w3.org/1999/xlink">
    <!-- Generator: Sketch 55.2 (78181) - https://sketchapp.com -->
    <title>icons/adas/ic_parkassist_easypark</title>
    <desc>Created with Sketch.</desc>
    <g id="icons/adas/ic_parkassist_easypark" stroke="none" stroke-width="1" fill="none" fill-rule="evenodd">
        <path d="M20,30.2879518 L24.6971403,30.2879518 C28.6857095,30.2879518 31.4285651,32.6788086 31.4285651,36.0077051 C31.4285651,39.3366015 28.9714236,41.7274584 24.7085688,41.7274584 L22.285713,41.7274584 L22.285713,49.735113 L20,49.735113 L20,30.2879518 Z M22.285713,32.5758531 L22.285713,39.4395571 L24.7428545,39.4395571 C27.5999958,39.4395571 29.2228521,38.2040904 29.2228521,36.0077051 C29.2228521,33.8113198 27.5999958,32.5758531 24.7428545,32.5758531 L22.285713,32.5758531 Z M60,39.9772139 C60.0125179,46.6001549 54.6622281,51.9810556 48.0456367,52 C41.4290454,52.0188447 36.04817,46.6685883 36.022868,40.0456834 C35.9977438,33.4227786 41.3377273,28.0316303 47.9542703,28 C54.579116,27.9810472 59.9684882,33.3346339 60,39.9657744 L60,39.9772139 Z M38.2857042,39.1306904 L42.8571303,37.9066632 C43.8425774,36.6340855 45.387845,35.9248037 46.9942709,36.0077051 L49.0171269,36.0077051 C50.6175651,35.925913 52.1573223,36.6303539 53.1428389,37.8952237 L57.6228365,39.1192509 C57.1995469,34.0955847 53.0023786,30.2338098 47.9656989,30.2338098 C42.9290192,30.2338098 38.7318509,34.0955847 38.3085614,39.1192509 L38.2857042,39.1306904 Z M41.5314167,42.2193572 L38.4342756,41.7274584 C39.2207415,45.8877731 42.5839121,49.0743153 46.7771281,49.6321575 L46.0457,46.3032611 C44.5942722,46.188866 44.0342725,45.7999228 42.8571303,44.3356659 C42.2979151,43.7131929 41.8599125,42.9915426 41.5657024,42.2079177 L41.5314167,42.2193572 Z M49.2342696,44.0153597 C50.1942691,44.0153597 50.5256975,43.7293721 51.2571257,42.8714091 C51.9885538,42.0134461 52.3199822,41.4643497 52.3199822,40.8466164 C52.3199822,40.228883 52.0342681,39.8971373 51.3599828,39.2222064 C50.8481507,38.5804079 50.0523416,38.2335141 49.2342696,38.2956064 L46.7771281,38.2956064 C45.9418192,38.2545065 45.1407684,38.6318325 44.6399864,39.302283 C43.9771297,39.9772139 43.6914155,40.4462337 43.6914155,40.9266929 C43.6914155,41.4071522 43.9771297,42.0706436 44.7542721,42.9514856 C45.5314145,43.8323276 45.8171287,44.0954363 46.7771281,44.0954363 L49.2342696,44.0153597 Z M49.9656978,46.3032611 L49.2342696,49.6092785 C53.4148427,49.0654916 56.7646822,45.8789412 57.5199794,41.7274584 L54.4456953,42.1735992 C54.1383333,42.9636632 53.6976365,43.6949916 53.1428389,44.3356659 C51.9999824,45.7999228 51.4171256,46.188866 49.9656978,46.3032611 Z" id="ICON_ADAS_014" fill="#FFFFFF"></path>
    </g>
</svg>