<?xml version="1.0" encoding="UTF-8"?>
<svg width="80px" height="80px" viewBox="0 0 80 80" version="1.1" xmlns="http://www.w3.org/2000/svg" xmlns:xlink="http://www.w3.org/1999/xlink">
    <!-- Generator: Sketch 55.2 (78181) - https://sketchapp.com -->
    <title>icons/clim/ic_passengerseats_heat</title>
    <desc>Created with Sketch.</desc>
    <g id="icons/clim/ic_passengerseats_heat" stroke="none" stroke-width="1" fill="none" fill-rule="evenodd">
        <path d="M27.2216216,23.6756757 C27.8918919,23.6756757 28.5189189,23.6756757 29.0810811,25.6216216 L29.3405405,26.4648648 L29.5567567,27.2216216 L29.6648649,27.6324324 C31.0054054,32.2594594 34.1405405,43.1135135 35.5243243,47.7189189 L36.2162162,49.7513514 L38.3783784,49.4054054 C43.3788452,48.5384208 48.4391216,48.061309 53.5135135,47.9783784 C54.6833108,47.9743872 55.8525038,48.0321252 57.0162162,48.1513514 C57.6216216,48.1513514 57.772973,48.4324324 57.8378379,48.5405406 C58.0206116,48.9234517 58.0206116,49.3684402 57.8378379,49.7513514 C57.4014805,51.3747035 56.7622059,52.9365677 55.9351352,54.4 C55.640134,55.1576889 54.8572375,55.6076294 54.0540541,55.4810811 L32.972973,55.4810811 C30.8108108,55.4810811 30.4648649,54.745946 30.2054054,53.9891892 C28.5405405,49.2972973 24.4324324,35.4378378 23.0918919,30.8756757 L22.6378378,29.3405405 C21.5351351,25.7081081 21.7513513,25.5567567 22.6378378,25.0162162 C24.0227265,24.1464526 25.6296658,23.6959089 27.2648648,23.7189189 L27.2216216,23.6756757 Z M27.2648648,21.2756757 C25.1007787,21.2430008 22.9767031,21.8606398 21.1675675,23.0486486 C18.8108108,24.8648648 19.2216216,26.5513513 20.2810811,30.1189189 L20.7351351,31.654054 C22.2486486,36.7135135 26.227027,50.2054054 27.8918919,54.8756757 C28.6303795,56.9913618 30.7508053,58.2997096 32.972973,58.0108108 L41.8810811,58.0108108 L54.0540541,58.0108108 C55.7799265,58.12399 57.3967403,57.1607818 58.1189189,55.5891892 C59.0505617,53.9703289 59.7768766,52.2416995 60.2810811,50.4432433 C60.6177874,49.3411823 60.4518841,48.1467413 59.8270271,47.1783784 C59.2153426,46.3460584 58.2637388,45.8306063 57.2324325,45.772973 C56.1513514,45.6648649 54.8972973,45.6 53.4918919,45.6 C48.3096539,45.6936555 43.141853,46.1779109 38.0324324,47.0486487 L38.0324324,47.0486487 L38.0324324,47.0486487 C36.627027,42.4 33.3405405,30.9621622 32.1081081,26.6594594 L31.4378378,24.8648648 C30.4864865,21.5783784 28.6918919,21.1675675 27.2216216,21.1675675 L27.2648648,21.2756757 Z M43.6108108,25.3621621 L45.772973,31.1783784 L44.5405405,31.1783784 C44.450743,31.5321266 44.3999895,31.8946516 44.3891892,32.2594594 L44.3891892,32.2594594 C44.3598229,32.9417791 44.4854938,33.6218801 44.7567568,34.2486486 L45.1027027,35.0702703 L45.2972973,35.5027027 C45.855434,36.5721346 46.158826,37.7561032 46.1837838,38.9621622 C46.1945031,39.0555493 46.1945031,39.1498561 46.1837838,39.2432432 C45.9819672,40.8266648 45.3458781,42.3233451 44.345946,43.5675676 L44.345946,43.6972973 L41.9675676,43.6972973 L42.2918919,43.2432432 C43.3193338,42.0590528 43.9803878,40.6017293 44.1945946,39.0486486 C44.1096271,37.7626337 43.7324981,36.5129316 43.0918919,35.3945946 L43.0918919,35.3945946 L42.7891892,34.5945946 C42.5001183,33.8668182 42.3746322,33.0843755 42.4216216,32.3027027 L42.4216216,32.3027027 C42.4332689,31.9321029 42.4766711,31.5631841 42.5513514,31.2 L41.3621622,31.2 L43.2432432,25.9891892 L43.6108108,25.3621621 Z M49.3837838,26.0324324 L47.3297297,31.1351351 L48.4972973,31.1351351 C48.422617,31.4983193 48.3792148,31.867238 48.3675676,32.2378378 L48.3675676,32.2378378 C48.3312063,33.0189482 48.4563353,33.799164 48.7351351,34.5297297 L49.0378378,35.3297297 L49.0378378,35.3297297 C49.678444,36.4480667 50.0555731,37.6977688 50.1405406,38.9837838 C49.9177495,40.5385107 49.2493745,41.9954179 48.2162162,43.1783784 L47.8918919,43.6324324 L50.2702703,43.6324324 L50.2702703,43.5027027 C51.2675273,42.2546095 51.9098834,40.7607581 52.1297297,39.1783784 L52.1297297,38.8972973 C52.1106896,37.6930607 51.8147643,36.5093596 51.2648649,35.4378378 L51.0702703,35.0054054 L50.7243243,34.1837838 C50.4462576,33.5591063 50.3202888,32.8773926 50.3567568,32.1945946 L50.3567568,32.1945946 C50.3665999,31.8310069 50.4100278,31.4691073 50.4864865,31.1135135 L51.8918919,31.1135135 L49.7297297,25.2972973 L49.3837838,26.0324324 Z M55.4378379,26.0324324 L53.3621622,31.1351351 L54.5513514,31.1351351 C54.4693997,31.4976873 54.4187629,31.8666127 54.4,32.2378378 L54.4,32.2378378 C54.3705208,33.0204511 54.5030188,33.8007173 54.7891892,34.5297297 L55.0918919,35.3297297 L55.0918919,35.3297297 C55.7495626,36.4655925 56.1344482,37.7386757 56.2162162,39.0486486 C55.9934252,40.6033755 55.3250502,42.0602828 54.2918919,43.2432432 L53.9891892,43.6972973 L56.3675676,43.6972973 L56.3675676,43.5675676 C57.3674997,42.3233451 58.0035889,40.8266648 58.2054054,39.2432432 C58.2054054,39.2432432 58.2054054,39.0486486 58.2054054,38.9621622 C58.1804476,37.7561032 57.8770556,36.5721346 57.3189189,35.5027027 L57.1243243,35.0702703 L56.7783784,34.2486486 C56.5071154,33.6218801 56.3814446,32.9417791 56.4108108,32.2594594 L56.4108108,32.2594594 C56.4171769,31.8942903 56.4680017,31.5312563 56.5621622,31.1783784 L57.7945946,31.1783784 L55.6324325,25.3621621 L55.4378379,26.0324324 Z" id="33" fill="#FFFFFF"></path>
    </g>
</svg>