<?xml version="1.0" encoding="UTF-8"?>
<svg width="80px" height="80px" viewBox="0 0 80 80" version="1.1" xmlns="http://www.w3.org/2000/svg" xmlns:xlink="http://www.w3.org/1999/xlink">
    <!-- Generator: Sketch 55.2 (78181) - https://sketchapp.com -->
    <title>icons/media/ic_player_next</title>
    <desc>Created with Sketch.</desc>
    <defs>
        <path d="M21,52 L21,28 L40.4842407,39.9771429 L21,52 Z M23.1776504,47.84 L35.8424069,40 L23.1776504,32.16 L23.1776504,47.84 Z M58.7077364,40 L40.4383954,50.8571429 L40.4383954,29.1428571 L58.7077364,40 Z M61,50.8571429 L58.7077364,50.8571429 L58.7077364,29.2 L61,29.2 L61,50.8571429 Z" id="path-1"></path>
    </defs>
    <g id="icons/media/ic_player_next" stroke="none" stroke-width="1" fill="none" fill-rule="evenodd">
        <mask id="mask-2" fill="white">
            <use xlink:href="#path-1"></use>
        </mask>
        <use id="ICON_MEDIA_015" fill="#FFFFFF" xlink:href="#path-1"></use>
    </g>
</svg>