<?xml version="1.0" encoding="UTF-8"?>
<svg width="80px" height="80px" viewBox="0 0 80 80" version="1.1" xmlns="http://www.w3.org/2000/svg" xmlns:xlink="http://www.w3.org/1999/xlink">
    <!-- Generator: Sketch 55.2 (78181) - https://sketchapp.com -->
    <title>icons/adas/ic_parkout_left</title>
    <desc>Created with Sketch.</desc>
    <g id="icons/adas/ic_parkout_left" stroke="none" stroke-width="1" fill="none" fill-rule="evenodd">
        <path d="M43.4819277,60 L23,60 L23,25.5375552 L43.4819277,25.5375552 L43.4819277,27.8350515 L25.2757697,27.8350515 L25.2757697,57.7025037 L43.4819277,57.7025037 L43.4819277,60 Z M37.7356091,55.4050074 L35.5167336,55.4050074 L35.5167336,50.6606775 C35.5167336,48.5125184 35.5167336,47.0536082 37.7925033,45.3649485 L48.2155288,37.7142857 C50.2182062,36.2438881 50.3319946,35.4167894 50.3319946,33.5443299 L50.3319946,31.281296 L45.5756359,31.281296 L51.4471218,21 L57,31.281296 L52.5850067,31.281296 L52.5850067,34.0382916 C52.5850067,36.0715758 52.4825971,37.4845361 50.2523427,39.104271 L39.7610442,46.7664212 C37.7583668,48.2253314 37.7583668,49.1213549 37.7583668,51.1546392 L37.7356091,55.4050074 Z" id="ICON_ADAS_031" fill="#FFFFFF"></path>
    </g>
</svg>