<?xml version="1.0" encoding="UTF-8"?>
<svg width="80px" height="80px" viewBox="0 0 80 80" version="1.1" xmlns="http://www.w3.org/2000/svg" xmlns:xlink="http://www.w3.org/1999/xlink">
    <!-- Generator: Sketch 55.2 (78181) - https://sketchapp.com -->
    <title>icons/adas/ic_parkout_right</title>
    <desc>Created with Sketch.</desc>
    <g id="icons/adas/ic_parkout_right" stroke="none" stroke-width="1" fill="none" fill-rule="evenodd">
        <path d="M43.487454,55.4050074 L41.2920709,55.4050074 L41.2920709,51.1086892 C41.2920709,49.075405 41.2920709,48.1793814 39.2786885,46.7204713 L28.802275,39.0583211 C26.5272666,37.4270987 26.4590164,36.0256259 26.4590164,33.9923417 L26.4590164,31.281296 L22,31.281296 L27.5623954,21 L33.431917,31.281296 L28.6316494,31.281296 L28.6316494,33.5787923 C28.6316494,35.4972018 28.7453998,36.2783505 30.7587822,37.7487482 L41.2124456,45.3649485 C43.487454,47.0536082 43.487454,48.5125184 43.487454,50.6606775 L43.487454,55.4050074 Z M35.5249247,57.7025037 L53.7249916,57.7025037 L53.7249916,27.8350515 L35.5249247,27.8350515 L35.5249247,25.5375552 L56,25.5375552 L56,60 L35.5249247,60 L35.5249247,57.7025037 Z" id="ICON_ADAS_027B" fill="#FFFFFF"></path>
    </g>
</svg>