<?xml version="1.0" encoding="UTF-8"?>
<svg width="80px" height="80px" viewBox="0 0 80 80" version="1.1" xmlns="http://www.w3.org/2000/svg" xmlns:xlink="http://www.w3.org/1999/xlink">
    <!-- Generator: Sketch 55.2 (78181) - https://sketchapp.com -->
    <title>icons/media/ic_song</title>
    <desc>Created with Sketch.</desc>
    <defs>
        <path d="M33.710394,59 C29.7837385,59 27,56.6457143 27,53.2857143 C27,49.9257143 29.7611065,47.5714286 33.6877619,47.5714286 C35.3594969,47.5620946 36.9871362,48.1127173 38.3160101,49.1371429 L38.3160101,19 L40.4207879,19 C43.7363789,25.6057143 54,27.5714286 54,33.8571429 C54,36.2685714 51.4538977,40.0171429 47.7988265,42.9314286 L46.2372171,41.2971429 C48.0704107,39.3428571 48.5004191,38.6685714 48.5004191,37.6057143 C48.5004191,34.8057143 43.0234702,33.3428571 40.5792121,30.44 L40.5792121,53 C40.511316,56.5885714 37.8067896,59 33.710394,59 Z" id="path-1"></path>
    </defs>
    <g id="icons/media/ic_song" stroke="none" stroke-width="1" fill="none" fill-rule="evenodd">
        <mask id="mask-2" fill="white">
            <use xlink:href="#path-1"></use>
        </mask>
        <use id="ICON_MEDIA_021" fill="#FFFFFF" xlink:href="#path-1"></use>
    </g>
</svg>