<?xml version="1.0" encoding="UTF-8"?>
<svg width="80px" height="80px" viewBox="0 0 80 80" version="1.1" xmlns="http://www.w3.org/2000/svg" xmlns:xlink="http://www.w3.org/1999/xlink">
    <!-- Generator: Sketch 55.2 (78181) - https://sketchapp.com -->
    <title>icons/snm/ic_snm</title>
    <desc>Created with Sketch.</desc>
    <g id="icons/snm/ic_snm" stroke="none" stroke-width="1" fill="none" fill-rule="evenodd">
        <path d="M44.2930738,28.006863 C46.5827132,28.006863 47.441328,28.9104947 47.441328,31.1524164 L47.441328,50.0028596 C47.441328,52.2905347 46.5369204,53.1369745 44.2930738,53.1369745 L31.4481969,53.1369745 L24.5792788,60 L24.5792788,53.1712897 L23.1482541,53.1712897 C20.9044076,53.1712897 20,52.2447812 20,50.0028596 L20,31.1752931 C20,28.887618 20.8929594,28.0297398 23.136806,28.0297398 L44.2930738,28.006863 Z M41.7515741,37.1575636 L41.7515741,34.8698885 L25.7240985,34.8698885 L25.7240985,37.1575636 L41.7515741,37.1575636 Z M41.7515741,41.7329139 L41.7515741,39.4452388 L25.7240985,39.4452388 L25.7240985,41.7329139 L41.7515741,41.7329139 Z M41.7515741,46.3082642 L41.7515741,44.0205891 L25.7240985,44.0205891 L25.7240985,46.3082642 L41.7515741,46.3082642 Z M32.5930166,23.1569917 C32.5930166,20.9150701 33.4745278,20 35.7183744,20 L56.863194,20 C59.1528334,20 60,20.8921933 60,23.134115 L60,41.9845582 C60,44.2722333 59.1070406,45.1301115 56.863194,45.1301115 L56.6342301,45.1301115 L56.6342301,51.993137 L49.765312,45.1644267 L49.765312,31.0609094 C49.765312,27.2519302 48.196909,25.6848727 44.3274184,25.6848727 L32.5930166,25.6848727 L32.5930166,23.1569917 Z" id="ICON_SNM_014" fill="#FFFFFF"></path>
    </g>
</svg>