<?xml version="1.0" encoding="UTF-8"?>
<svg width="80px" height="80px" viewBox="0 0 80 80" version="1.1" xmlns="http://www.w3.org/2000/svg" xmlns:xlink="http://www.w3.org/1999/xlink">
    <!-- Generator: Sketch 55.2 (78181) - https://sketchapp.com -->
    <title>icons/clim/ic_steering_heat</title>
    <desc>Created with Sketch.</desc>
    <g id="icons/clim/ic_steering_heat" stroke="none" stroke-width="1" fill="none" fill-rule="evenodd">
        <path d="M47.7621622,25.7945946 C47.6540541,25.5783784 47.5675676,25.3621621 47.4810811,25.1459459 L47.2648649,24.7135135 L46.9189189,23.8918919 C46.6408522,23.2672144 46.5148833,22.5855007 46.5513514,21.9027027 L46.5513514,21.9027027 C46.5684233,21.5384523 46.6190888,21.1765561 46.7027027,20.8216216 L47.9351351,20.8216216 L45.772973,15.0054054 L45.4054054,15.6324324 L43.372973,20.7783784 L44.5621622,20.7783784 C44.4862431,21.1486575 44.4428347,21.5248639 44.4324324,21.9027027 L44.4324324,21.9027027 C44.385443,22.6843755 44.5109291,23.4668182 44.8,24.1945946 L45.0378378,24.8216216 C43.7422485,24.485393 42.4171466,24.2754042 41.0810811,24.1945946 L40.9513514,23.8918919 C40.6658183,23.2695535 40.5395066,22.5859843 40.5837838,21.9027027 L40.5837838,21.9027027 C40.5901499,21.5375335 40.6409747,21.1744995 40.7351351,20.8216216 L41.9459459,20.8216216 L39.7837838,15.0054054 L39.5027027,15.6756756 L37.4918919,20.8216216 L38.6810811,20.8216216 C38.588422,21.1821514 38.5376363,21.5521618 38.5297297,21.9243243 L38.5297297,21.9243243 C38.5150759,22.6617556 38.6397825,23.3953238 38.8972973,24.0864865 C37.6873563,24.1473578 36.4857432,24.321085 35.3081081,24.6054054 L34.9405405,23.7837838 C34.6755042,23.1551352 34.550094,22.4764448 34.572973,21.7945946 L34.572973,21.7945946 C34.5852741,21.4299152 34.6360051,21.0675503 34.7243243,20.7135135 L35.9567568,20.7135135 L33.7945946,14.8972973 L33.5351351,15.5675675 L31.5027027,20.7135135 L32.4324324,20.7135135 C32.3577521,21.0766976 32.3143499,21.4456164 32.3027027,21.8162162 L32.3027027,21.8162162 C32.2557133,22.597889 32.3811994,23.3803317 32.6702703,24.1081081 L32.972973,24.9081081 L32.972973,24.9081081 L33.1027027,25.1891892 C24.1028179,28.3992794 18.6568892,37.5550234 20.1319578,46.9957214 C21.6070265,56.4364194 29.5863011,63.4945328 39.1364546,63.8062589 C48.6866082,64.117985 57.1091747,57.5952432 59.1967543,48.2708334 C61.284334,38.9464237 56.4470657,29.4550263 47.6756757,25.6648648 L47.7621622,25.7945946 Z M37.0810811,61.2756757 C30.0991796,60.1322986 24.4883404,54.9051794 22.854054,48.0216216 L22.854054,47.6972973 L23.1567567,47.6972973 L26.1621621,48.0648649 L28.0432432,48.2810811 L29.1891892,48.4108108 L29.4486486,48.4108108 L29.7081081,48.4108108 L30.0108108,48.4108108 L30.0108108,48.5189189 C30.7462913,50.0968617 31.7157737,51.55473 32.8864865,52.8432433 C33.5836794,53.8311802 34.5635802,54.58495 35.6972973,55.0054054 C36.0316698,55.0862929 36.3712098,55.1440869 36.7135135,55.1783784 L36.8864865,55.1783784 L37.1459459,58.2054054 C37.1459459,59.2216216 37.2972973,60.172973 37.3621622,60.9081081 L37.3621622,61.2108108 L37.0810811,61.2756757 Z M39.5027027,52.972973 L39.5027027,52.972973 L37.7945946,52.972973 C36.5405405,52.8648649 36.0216216,52.6486487 34.7675676,51.2216216 C33.760899,50.0757298 32.9697871,48.75721 32.4324324,47.3297297 C31.9882443,46.3677867 32.0283853,45.2518665 32.5405405,44.3243243 L32.5405405,44.2162162 C32.9782708,43.3064058 33.5304928,42.4562745 34.1837838,41.6864865 C35.5675676,40.172973 36.1513513,40.0864865 36.7567568,40 C37.7598274,39.8606228 38.7710866,39.78839 39.7837838,39.7837838 C40.7750839,39.7845839 41.7650368,39.8568433 42.7459459,40 C43.4378378,40 44.0432432,40.172973 45.4054054,41.6864865 C46.0586964,42.4562745 46.6109184,43.3064058 47.0486487,44.2162162 L47.0486487,44.345946 C47.6004066,45.2823641 47.6569837,46.4300713 47.2,47.4162162 C46.6231911,48.8059246 45.8113226,50.0858975 44.8,51.2 C43.545946,52.627027 43.027027,52.8432433 41.772973,52.9513514 C40.5189189,53.0594595 39.8702703,52.972973 39.5027027,52.972973 Z M56.8,48.0216216 C55.2246217,54.9392724 49.584716,60.1934702 42.572973,61.2756757 L42.2702703,61.2756757 L42.2702703,60.972973 C42.4,59.7405406 42.5513514,57.8378379 42.6810811,56.1513514 L42.6810811,55.2432433 L42.8756757,55.2432433 C43.2177167,55.2070264 43.5571303,55.1492538 43.8918919,55.0702703 C45.025609,54.6498149 46.0055098,53.8960451 46.7027027,52.9081081 C47.9155761,51.6447809 48.9355534,50.2095271 49.7297297,48.6486487 L49.7297297,48.6486487 L50.0108108,48.6486487 L50.1837838,48.6486487 L50.5513514,48.6486487 L51.0702703,48.6486487 L51.5675676,48.6486487 L54.4,48.3027027 L56.5621622,48.0432433 L56.8864865,48.0432433 L56.8,48.0216216 Z M49.8162162,41.8378378 C49.5142425,41.7752581 49.2177912,41.6884919 48.9297297,41.5783784 L48.9297297,41.5783784 L48.9297297,41.5783784 C48.5663101,40.9843277 48.1463406,40.4267821 47.6756757,39.9135135 C45.8162162,37.7513513 45.0810811,37.7513513 44.2594595,37.6216216 L44.1513514,37.6216216 C41.3477848,37.2180154 38.5008638,37.2180154 35.6972973,37.6216216 L35.6972973,37.6216216 C34.8972973,37.7297297 34.1405405,37.8594595 32.2810811,39.8918919 C31.8160503,40.4175201 31.3965233,40.9817117 31.027027,41.5783784 L31.027027,41.5783784 L31.027027,41.5783784 C30.7389656,41.6884919 30.4425143,41.7752581 30.1405405,41.8378378 C29.3837838,42.0108108 25.4486486,43.1351351 23.654054,43.6540541 L22.7891892,43.9135135 L22.7891892,43.5891892 C23.0452081,36.3991903 27.6516132,30.088929 34.4216216,27.654054 C34.5046979,27.9938479 34.5482299,28.3421037 34.5513513,28.6918919 C34.3541542,30.2885257 33.6925645,31.7921386 32.6486486,33.0162162 L32.3243243,33.4486486 L34.7027027,33.4486486 L34.7027027,33.3405405 C35.6936031,32.0886459 36.335184,30.5965974 36.5621622,29.0162162 L36.5621622,28.6054054 C36.4611683,28.0610216 36.2941701,27.5309839 36.0648649,27.027027 C37.2856861,26.7515514 38.5323257,26.6065933 39.7837838,26.5945946 C40.0549552,27.2839839 40.2013786,28.0161007 40.2162162,28.7567567 C40.0091456,30.3547163 39.340383,31.8575536 38.2918919,33.0810811 L37.9891892,33.5135135 L40.3459459,33.5135135 L40.3459459,33.4054054 C41.34506,32.1584266 41.9876453,30.6640421 42.2054054,29.0810811 L42.2054054,28.6054054 C42.2000096,27.9854788 42.1201582,27.3684453 41.9675676,26.7675676 C43.3759405,26.9588449 44.7555824,27.3219085 46.0756757,27.8486486 C46.1065612,28.1288813 46.1065612,28.4116592 46.0756757,28.6918919 C45.8784785,30.2885257 45.2168888,31.7921386 44.172973,33.0162162 L43.8486487,33.4486486 L46.227027,33.4486486 L46.227027,33.3405405 C47.2179275,32.0886459 47.8595083,30.5965974 48.0864865,29.0162162 L48.0864865,29.0162162 C53.4215262,32.0264341 56.8047537,37.5968814 57.0162162,43.7189189 L57.0162162,44.0432432 L56.7135135,44.0432432 C52.9513514,42.6810811 50.4216216,41.9675676 49.8378379,41.8378378 L49.8162162,41.8378378 Z" id="38" fill="#FFFFFF"></path>
    </g>
</svg>