<?xml version="1.0" encoding="UTF-8"?>
<svg width="80px" height="80px" viewBox="0 0 80 80" version="1.1" xmlns="http://www.w3.org/2000/svg" xmlns:xlink="http://www.w3.org/1999/xlink">
    <!-- Generator: Sketch 55.2 (78181) - https://sketchapp.com -->
    <title>icons/gen/ic_search</title>
    <desc>Created with Sketch.</desc>
    <defs>
        <path d="M57.4738956,59 L44.6546185,46.232 C42.2128514,48.36 39.0080321,49.576 35.3453815,49.576 C27.4096386,49.576 21,43.192 21,35.288 C21,27.384 27.4096386,21 35.3453815,21 C43.2811245,21 49.6907631,27.384 49.6907631,35.288 C49.6907631,38.936 48.3172691,42.128 46.1807229,44.56 L59,57.328 L57.4738956,59 Z M35.3453815,22.368 C28.1726908,22.368 22.373494,28.144 22.373494,35.288 C22.373494,42.432 28.1726908,48.208 35.3453815,48.208 C42.5180723,48.208 48.3172691,42.432 48.3172691,35.288 C48.3172691,28.144 42.5180723,22.368 35.3453815,22.368 Z" id="path-1"></path>
    </defs>
    <g id="icons/gen/ic_search" stroke="none" stroke-width="1" fill="none" fill-rule="evenodd">
        <mask id="mask-2" fill="white">
            <use xlink:href="#path-1"></use>
        </mask>
        <use id="ICON_GEN_029" fill="#FFFFFF" xlink:href="#path-1"></use>
    </g>
</svg>