<?xml version="1.0" encoding="UTF-8"?>
<svg width="80px" height="80px" viewBox="0 0 80 80" version="1.1" xmlns="http://www.w3.org/2000/svg" xmlns:xlink="http://www.w3.org/1999/xlink">
    <!-- Generator: Sketch 55.2 (78181) - https://sketchapp.com -->
    <title>icons/eepe/ic_score_detail</title>
    <desc>Created with Sketch.</desc>
    <defs>
        <path d="M28.0546529,36.9227799 L32.2031019,37.6023166 L29.1750369,40.6911197 L29.9017725,45 L26.05613,42.8532819 L22.3467504,45 L23.1794682,40.6602317 L20,37.6023166 L24.2544313,36.9227799 L26.05613,33.030888 L28.0546529,36.9227799 Z M42.4531019,36.9227799 L46.601551,37.6023166 L43.573486,40.6911197 L44.3002216,45 L40.4394387,42.8532819 L36.7451994,45 L37.5779173,40.6602317 L34.44387,37.5714286 L38.6983013,36.8918919 L40.4394387,33 L42.4531019,36.9227799 Z M56.851551,36.9227799 L61,37.6023166 L57.971935,40.6911197 L58.6986706,45 L54.8227474,42.8532819 L51.1436484,45 L51.9763663,40.6602317 L48.8423191,37.5714286 L53.0967504,36.8918919 L54.8227474,33.030888 L56.851551,36.9227799 Z" id="path-1"></path>
    </defs>
    <g id="icons/eepe/ic_score_detail" stroke="none" stroke-width="1" fill="none" fill-rule="evenodd">
        <mask id="mask-2" fill="white">
            <use xlink:href="#path-1"></use>
        </mask>
        <use id="ICON_ECO_004" fill="#FFFFFF" xlink:href="#path-1"></use>
    </g>
</svg>