<?xml version="1.0" encoding="UTF-8"?>
<svg width="80px" height="80px" viewBox="0 0 80 80" version="1.1" xmlns="http://www.w3.org/2000/svg" xmlns:xlink="http://www.w3.org/1999/xlink">
    <!-- Generator: Sketch 55.2 (78181) - https://sketchapp.com -->
    <title>icons/settings/ic_seat_passenger</title>
    <desc>Created with Sketch.</desc>
    <defs>
        <path d="M52.3791822,51.8550186 C52.3791822,53.0743494 51.464684,55.9702602 50.0929368,58.866171 C49.330855,60.3903346 48.5687732,61 47.5018587,61 L30.5836431,61 C27.9925651,61 26.9256506,60.2379182 26.3159851,58.2565056 L19.6096654,35.394052 C19.1524164,33.5650558 19,32.802974 19,31.8884758 C19,29.2973978 22.8104089,27.4684015 25.5539033,27.4684015 C27.535316,27.4684015 28.7546468,28.3828996 29.2118959,30.8215613 L33.936803,50.1784387 C38.66171,49.4163569 45.2156134,48.8066914 48.4163569,48.8066914 C51.0074349,48.9591078 52.3791822,49.8736059 52.3791822,51.8550186 Z M25.5539033,28.8401487 C23.1152416,28.8401487 20.3717472,30.2118959 20.3717472,32.0408922 C20.3717472,32.6505576 20.5241636,33.4126394 20.8289963,34.4795539 L27.535316,57.7992565 C27.9925651,59.1710037 28.6022305,59.4758364 30.2788104,59.4758364 L46.739777,59.4758364 C47.8066914,59.4758364 48.2639405,59.3234201 48.7211896,58.4089219 C49.9405204,55.9702602 51.0074349,52.9219331 51.0074349,51.8550186 C51.0074349,50.7881041 50.2453532,50.1784387 48.5687732,50.1784387 C45.3680297,50.1784387 37.4423792,50.9405204 33.0223048,51.7026022 L28.1449814,31.7360595 C27.6877323,29.6022305 26.9256506,28.8401487 25.5539033,28.8401487 Z M31.3457249,23.6579926 C31.3457249,21.6765799 33.0223048,20 35.0037175,20 C37.1375465,20 38.8141264,21.6765799 38.8141264,23.6579926 C38.8141264,25.6394052 37.1375465,27.3159851 35.0037175,27.3159851 C32.8698885,27.3159851 31.3457249,25.6394052 31.3457249,23.6579926 Z M49.4832714,44.0817844 C49.0260223,44.0817844 48.5687732,44.2342007 48.1115242,44.3866171 L41.2527881,46.8252788 C40.33829,47.1301115 39.5762082,47.1301115 38.9665428,47.1301115 C37.5947955,47.1301115 36.527881,46.3680297 36.070632,44.8438662 L33.0223048,34.1747212 C32.8698885,33.5650558 32.7174721,32.802974 32.7174721,32.3457249 C32.7174721,31.2788104 33.936803,30.669145 35.0037175,30.669145 C36.070632,30.669145 36.9851301,31.7360595 37.2899628,32.9553903 L39.8810409,42.4052045 C39.8810409,42.5576208 40.0334572,42.7100372 40.33829,42.7100372 C40.4907063,42.7100372 40.795539,42.5576208 41.8624535,42.2527881 L48.4163569,40.1189591 C49.330855,39.8141264 49.9405204,39.66171 50.5501859,39.66171 C51.6171004,39.66171 52.3791822,40.2713755 53.4460967,41.6431227 L59.5427509,49.8736059 C59.8475836,50.330855 60,50.7881041 60,51.2453532 C60,52.3122677 59.0855019,53.2267658 58.0185874,53.2267658 C57.2565056,53.2267658 56.6468401,52.7695167 56.0371747,52.0074349 L50.5501859,44.8438662 C50.2453532,44.3866171 49.7881041,44.0817844 49.4832714,44.0817844 Z" id="path-1"></path>
    </defs>
    <g id="icons/settings/ic_seat_passenger" stroke="none" stroke-width="1" fill="none" fill-rule="evenodd">
        <mask id="mask-2" fill="white">
            <use xlink:href="#path-1"></use>
        </mask>
        <use id="ICON_SEAT_012" fill="#FFFFFF" xlink:href="#path-1"></use>
    </g>
</svg>