<?xml version="1.0" encoding="UTF-8"?>
<svg width="80px" height="80px" viewBox="0 0 80 80" version="1.1" xmlns="http://www.w3.org/2000/svg" xmlns:xlink="http://www.w3.org/1999/xlink">
    <!-- Generator: Sketch 55.2 (78181) - https://sketchapp.com -->
    <title>icons/photovideo/ic_scenerecorder_unlock</title>
    <desc>Created with Sketch.</desc>
    <defs>
        <path d="M51.0606588,52.9886347 L29.9996318,52.9886347 C28.9641987,53.0698201 27.9421493,52.7133568 27.1820931,52.0059531 C26.422037,51.2985494 25.993633,50.3050386 26.001089,49.2670885 L26.001089,35.5400741 C25.9754496,34.4777561 26.4035773,33.4547699 27.1783708,32.7270279 C27.9531642,31.9992859 29.0013379,31.6356232 30.0606782,31.7270145 L46.2685121,31.7270145 C47.8790325,30.1810746 48.8441604,28.0830746 48.9698177,25.8549027 C48.8278052,22.3092951 45.9712817,19.4744898 42.4225854,19.3574492 C40.2706979,19.3574492 38.3629961,20.3183402 36.1042773,22.5299148 L34.5781159,23.9331207 L33.6318959,22.9722297 L35.1580572,21.5537715 C37.0129861,19.4880046 39.5926113,18.2153702 42.3615389,18 C46.7300126,18.0549332 50.2811945,21.5367177 50.419671,25.9006594 C50.327515,28.0434485 49.5218002,30.0940751 48.130429,31.7270145 L50.9996123,31.7270145 C52.0527566,31.6486342 53.0896738,32.0208256 53.8522582,32.7509443 C54.6148426,33.481063 55.0313683,34.5004366 54.9981552,35.5553263 L54.9981552,49.2823408 C55.0046412,50.3076988 54.5840426,51.2895443 53.8371581,51.9925732 C53.0902735,52.6956021 52.0844213,53.0564488 51.0606588,52.9886347 Z M37.4472993,39.1701068 C37.4036042,40.3021535 37.9912614,41.3651595 38.9734607,41.9307619 L38.9734607,46.9792528 L41.8579057,46.9792528 L41.8579057,41.9002574 C42.840105,41.3346551 43.4277622,40.271649 43.3840671,39.1396023 C43.3840671,37.4548866 42.0174956,36.0891546 40.3317443,36.0891546 C38.645993,36.0891546 37.2794216,37.4548866 37.2794216,39.1396023 L37.4472993,39.1701068 Z" id="path-1"></path>
    </defs>
    <g id="icons/photovideo/ic_scenerecorder_unlock" stroke="none" stroke-width="1" fill="none" fill-rule="evenodd">
        <mask id="mask-2" fill="white">
            <use xlink:href="#path-1"></use>
        </mask>
        <use id="ICON_SR_005" fill="#FFFFFF" xlink:href="#path-1"></use>
    </g>
</svg>