<?xml version="1.0" encoding="UTF-8"?>
<svg width="80px" height="80px" viewBox="0 0 80 80" version="1.1" xmlns="http://www.w3.org/2000/svg" xmlns:xlink="http://www.w3.org/1999/xlink">
    <!-- Generator: Sketch 55.2 (78181) - https://sketchapp.com -->
    <title>icons/weather/ic_snow_severe</title>
    <desc>Created with Sketch.</desc>
    <g id="icons/weather/ic_snow_severe" stroke="none" stroke-width="1" fill="none" fill-rule="evenodd">
        <path d="M62.835443,38.835443 L58.3460759,38.835443 L62.6316456,34.5556962 C62.9961837,34.2822926 63.1677742,33.8213938 63.07078,33.3761639 C62.9737859,32.9309339 62.6260281,32.5831761 62.1807981,32.486182 C61.7355682,32.3891878 61.2746694,32.5607783 61.0012658,32.9253165 L55.096962,38.835443 L43.7891139,38.835443 L51.6498734,30.9746835 L59.9939241,30.9746835 C60.6370911,30.9746835 61.158481,30.4532936 61.158481,29.8101266 C61.158481,29.1669595 60.6370911,28.6455696 59.9939241,28.6455696 L53.9789873,28.6455696 L57.2455696,25.3848101 C57.6101077,25.1114065 57.7816982,24.6505077 57.6847041,24.2052778 C57.5877099,23.7600479 57.2399521,23.4122901 56.7947222,23.3152959 C56.3494923,23.2183018 55.8885935,23.3898923 55.6151899,23.7544304 L52.3544304,27.0210127 L52.3544304,20.9303797 C52.3544304,20.2872127 51.8330405,19.7658228 51.1898734,19.7658228 C50.5467064,19.7658228 50.0253165,20.2872127 50.0253165,20.9303797 L50.0253165,29.2744304 L42.164557,37.1351899 L42.164557,25.903038 L48.0746835,19.9987342 C48.4224089,19.5351004 48.3763023,18.8863321 47.9665041,18.4765339 C47.5567059,18.0667356 46.9079376,18.0206291 46.4443038,18.3683544 L42.164557,22.6539241 L42.164557,18.164557 C42.164557,17.5213899 41.6431671,17 41,17 C40.3568329,17 39.835443,17.5213899 39.835443,18.164557 L39.835443,22.6539241 L35.5556962,18.3683544 C35.0920624,18.0206291 34.4432941,18.0667356 34.0334959,18.4765339 C33.6236977,18.8863321 33.5775911,19.5351004 33.9253165,19.9987342 L39.835443,25.903038 L39.835443,37.1293671 L31.7534177,29.1288608 L31.7534177,21.0060759 C31.7534177,20.3629089 31.2320278,19.841519 30.5888608,19.841519 C29.9456937,19.841519 29.4243038,20.3629089 29.4243038,21.0060759 L29.4243038,26.7997468 L26.3848101,23.7544304 C25.9211764,23.4067051 25.2724081,23.4528116 24.8626098,23.8626098 C24.4528116,24.2724081 24.4067051,24.9211764 24.7544304,25.3848101 L28.0210127,28.6455696 L21.7848101,28.6455696 C21.1416431,28.6455696 20.6202532,29.1669595 20.6202532,29.8101266 C20.6202532,30.4532936 21.1416431,30.9746835 21.7848101,30.9746835 L30.3501266,30.9746835 L38.2108861,38.835443 L26.903038,38.835443 L20.9987342,32.9253165 C20.5351004,32.5775911 19.8863321,32.6236977 19.4765339,33.0334959 C19.0667356,33.4432941 19.0206291,34.0920624 19.3683544,34.5556962 L23.6539241,38.835443 L19.164557,38.835443 C18.5213899,38.835443 18,39.3568329 18,40 C18,40.6431671 18.5213899,41.164557 19.164557,41.164557 L23.6539241,41.164557 L19.3683544,45.4443038 C19.1431822,45.6556321 19.0154502,45.950686 19.0154502,46.2594937 C19.0154502,46.5683014 19.1431822,46.8633553 19.3683544,47.0746835 C19.8211848,47.5185461 20.5459038,47.5185461 20.9987342,47.0746835 L26.903038,41.164557 L38.1293671,41.164557 L30.1288608,49.2465823 L21.7848101,49.2465823 C21.1416431,49.2465823 20.6202532,49.7679722 20.6202532,50.4111392 C20.6202532,51.0543063 21.1416431,51.5756962 21.7848101,51.5756962 L27.7997468,51.5756962 L24.7544304,54.6151899 C24.5292581,54.8265181 24.4015262,55.1215721 24.4015262,55.4303797 C24.4015262,55.7391874 24.5292581,56.0342414 24.7544304,56.2455696 C25.2072608,56.6894322 25.9319797,56.6894322 26.3848101,56.2455696 L29.4243038,53.2002532 L29.4243038,59.2151899 C29.4243038,59.8583569 29.9456937,60.3797468 30.5888608,60.3797468 C31.2320278,60.3797468 31.7534177,59.8583569 31.7534177,59.2151899 L31.7534177,50.8711392 L39.835443,42.7891139 L39.835443,54.0212658 L33.9253165,59.9313924 C33.587129,60.3954925 33.6377271,61.0368381 34.0445068,61.442165 C34.4512865,61.847492 35.092809,61.8957951 35.5556962,61.5559494 L39.835443,57.2762025 L39.835443,61.835443 C39.835443,62.4786101 40.3568329,63 41,63 C41.6431671,63 42.164557,62.4786101 42.164557,61.835443 L42.164557,57.3460759 L46.4443038,61.6316456 C46.8971342,62.0755082 47.6218531,62.0755082 48.0746835,61.6316456 C48.2998558,61.4203173 48.4275877,61.1252634 48.4275877,60.8164557 C48.4275877,60.507648 48.2998558,60.2125941 48.0746835,60.0012658 L42.164557,54.096962 L42.164557,42.7891139 L50.0253165,50.6498734 L50.0253165,59.2151899 C50.0253165,59.8583569 50.5467064,60.3797468 51.1898734,60.3797468 C51.8330405,60.3797468 52.3544304,59.8583569 52.3544304,59.2151899 L52.3544304,52.9789873 L55.6151899,56.2455696 C56.0680203,56.6894322 56.7927392,56.6894322 57.2455696,56.2455696 C57.4707419,56.0342414 57.5984738,55.7391874 57.5984738,55.4303797 C57.5984738,55.1215721 57.4707419,54.8265181 57.2455696,54.6151899 L54.2002532,51.5756962 L60.023038,51.5756962 C60.666205,51.5756962 61.1875949,51.0543063 61.1875949,50.4111392 C61.1875949,49.7679722 60.666205,49.2465823 60.023038,49.2465823 L51.8711392,49.2465823 L43.7891139,41.164557 L55.0212658,41.164557 L60.9313924,47.0746835 C61.3835044,47.5147544 62.1038374,47.5147544 62.5559494,47.0746835 C62.7811216,46.8633553 62.9088536,46.5683014 62.9088536,46.2594937 C62.9088536,45.950686 62.7811216,45.6556321 62.5559494,45.4443038 L58.3577215,41.164557 L62.835443,41.164557 C63.4786101,41.164557 64,40.6431671 64,40 C64,39.3568329 63.4786101,38.835443 62.835443,38.835443 Z" id="weather_ICON_WEATHER_29" fill="#FFFFFF"></path>
    </g>
</svg>