<?xml version="1.0" encoding="UTF-8"?>
<svg width="100px" height="100px" viewBox="0 0 100 100" version="1.1" xmlns="http://www.w3.org/2000/svg" xmlns:xlink="http://www.w3.org/1999/xlink">
    <!-- Generator: Sketch 55.2 (78181) - https://sketchapp.com -->
    <title>icons/clim/ic_status_mini</title>
    <desc>Created with Sketch.</desc>
    <defs>
        <path d="M47.9605219,59.5967742 C46.0736032,67.5564516 43.431917,70.3991935 39.092004,70.3991935 C32.6764804,70.3991935 27.0157243,63.766129 27.0157243,56.375 C26.8270325,53.1532258 28.3365674,49.7419355 31.5443292,49.7419355 C35.1294747,49.7419355 37.7711609,53.5322581 42.2997658,53.5322581 C44.7527601,53.5322581 47.5831382,52.3951613 47.5831382,50.8790323 C47.5831382,49.7419355 46.8283707,49.1733871 41.3563065,47.8467742 C33.4312479,45.9516129 30.6008699,43.2983871 30.6008699,38.9395161 C30.6008699,32.875 37.2050853,27 44.7527601,27 C47.9605219,27 51.3569756,28.516129 51.3569756,31.7379032 C51.3569756,35.3387097 47.5831382,37.9919355 47.5831382,42.5403226 C47.5831382,45.0040323 48.9039813,47.6572581 50.4135162,47.6572581 C51.3569756,47.6572581 51.7343593,46.8991935 53.0552024,41.4032258 C54.9421211,33.4435484 57.5838073,30.6008065 61.9237203,30.6008065 C68.3392439,30.6008065 74,37.233871 74,44.625 C74,47.8467742 72.490465,51.2580645 69.2827032,51.2580645 C65.6975577,51.2580645 63.0558715,47.4677419 58.5272666,47.4677419 C56.0742723,47.4677419 53.2438943,48.6048387 53.2438943,50.1209677 C53.2438943,51.2580645 53.9986618,51.6370968 59.470726,52.9637097 C67.3957845,54.858871 70.2261626,57.5120968 70.2261626,61.8709677 C70.2261626,68.3145161 63.6219471,74 56.2629642,74 C53.0552024,74 49.6587487,72.483871 49.6587487,69.2620968 C49.6587487,65.6612903 53.4325861,63.0080645 53.4325861,58.4596774 C53.4325861,55.9959677 52.1117431,53.1532258 50.9795918,53.1532258 C49.6587487,53.3427419 49.281365,54.2903226 47.9605219,59.5967742 Z M46.2622951,59.2177419 C46.8283707,57.5120968 47.3944463,55.2379032 47.9605219,53.5322581 C46.450987,54.6693548 44.5640683,55.4274194 42.4884577,55.4274194 C37.9598528,55.4274194 34.1860154,51.6370968 31.9217129,51.6370968 C29.4687186,51.6370968 28.5252593,54.1008065 28.5252593,56.5645161 C28.5252593,63.0080645 33.6199398,68.8830645 38.9033121,68.8830645 C43.2432252,68.6935484 44.941452,64.1451613 46.2622951,59.2177419 Z M41.9223821,46.3306452 C43.6206089,46.7096774 45.8849113,47.4677419 47.5831382,48.0362903 C46.450987,46.5201613 45.6962195,44.8145161 45.6962195,42.7298387 C45.6962195,38.1814516 49.4700569,34.391129 49.4700569,32.1169355 C49.4700569,29.6532258 47.0170626,28.7056452 44.5640683,28.7056452 C38.1485447,28.7056452 32.4877886,34.0120968 32.4877886,39.1290323 C32.4877886,43.2983871 36.6390097,45.0040323 41.9223821,46.3306452 Z M58.9046504,54.858871 C57.2064236,54.2903226 54.9421211,53.7217742 53.2438943,53.3427419 C54.1873536,54.858871 54.9421211,56.5645161 54.9421211,58.6491935 C54.9421211,63.1975806 51.1682837,66.9879032 51.1682837,69.2620968 C51.1682837,71.7258065 53.621278,72.6733871 56.0742723,72.6733871 C62.4897959,72.6733871 68.150552,67.5564516 68.150552,62.25 C68.3392439,57.891129 63.810639,56.1854839 58.9046504,54.858871 Z M54.5647374,42.1612903 C53.9986618,43.8669355 53.4325861,46.141129 52.8665105,47.8467742 C54.3760455,46.7096774 56.0742723,45.9516129 58.1498829,45.9516129 C62.6784878,45.9516129 66.4523252,49.7419355 68.7166276,49.7419355 C71.1696219,49.7419355 72.1130813,47.2782258 72.1130813,44.8145161 C72.1130813,38.3709677 67.0184008,32.6854839 61.7350284,32.6854839 C57.5838073,32.6854839 55.8855805,37.0443548 54.5647374,42.1612903 Z" id="path-1"></path>
    </defs>
    <g id="icons/clim/ic_status_mini" stroke="none" stroke-width="1" fill="none" fill-rule="evenodd">
        <mask id="mask-2" fill="white">
            <use xlink:href="#path-1"></use>
        </mask>
        <use id="ICON_CLIM_01a" fill="#FFFFFF" xlink:href="#path-1"></use>
    </g>
</svg>