<?xml version="1.0" encoding="UTF-8"?>
<svg width="80px" height="80px" viewBox="0 0 80 80" version="1.1" xmlns="http://www.w3.org/2000/svg" xmlns:xlink="http://www.w3.org/1999/xlink">
    <!-- Generator: Sketch 55.2 (78181) - https://sketchapp.com -->
    <title>icons/eepe/ic_trophy_thunder</title>
    <desc>Created with Sketch.</desc>
    <g id="icons/eepe/ic_trophy_thunder" stroke="none" stroke-width="1" fill="none" fill-rule="evenodd">
        <path d="M32.7477806,54.4701987 L45.9934052,54.4701987 C47.0979747,54.4701987 47.9934052,55.3656292 47.9934052,56.4701987 L47.9934052,57 C47.9934052,58.1045695 47.0979747,59 45.9934052,59 L32.7477806,59 C31.6432111,59 30.7477806,58.1045695 30.7477806,57 L30.7477806,56.4701987 C30.7477806,55.3656292 31.6432111,54.4701987 32.7477806,54.4701987 Z M39.6665059,21.0042396 L49.5385396,21.0042396 C50.3351909,20.9682358 50.7269031,21.1615489 50.713676,21.584179 C50.7011412,22.1631111 50.7011412,22.5718851 50.713676,22.8105009 C58.2282538,21.6212814 57.16818,26.785971 57.16818,27.0799749 C55.221315,36.6718854 46.6965788,40.5300916 46.4179545,40.7200442 C45.7311965,41.7598357 44.5035145,42.885701 42.7349086,44.0976402 C42.7339278,44.1851349 42.7339278,44.2746047 42.7349086,44.3660495 C44.1754444,45.2321088 44.1245579,46.2668209 42.5822492,47.4701859 C42.5822492,47.7326371 42.5822492,47.9891138 42.5822492,48.2396159 C44.9524312,51.9723848 45.314267,51.9532316 45.8496216,52.3056585 C46.2985944,52.4963293 46.1588085,53.09186 45.8496216,53.0966843 C45.6878839,53.0978914 43.6079287,53.0852918 39.6097561,53.0588855 C35.6115835,53.0852918 33.5316283,53.0978914 33.3698906,53.0966843 C33.0607036,53.09186 32.9209178,52.4963293 33.3698906,52.3056585 C33.9052452,51.9532316 34.2670809,51.9723848 36.637263,48.2396159 C36.637263,47.9891138 36.637263,47.7326371 36.637263,47.4701859 C35.0949543,46.2668209 35.0440678,45.2321088 36.4846036,44.3660495 C36.4855844,44.2746047 36.4855844,44.1851349 36.4846036,44.0976402 C34.7159977,42.885701 33.4883157,41.7598357 32.8015577,40.7200442 C32.5229334,40.5300916 23.9981972,36.6718854 22.0513322,27.0799749 C22.0513322,26.785971 20.9912584,21.6212814 28.5058362,22.8105009 C28.5183709,22.5718851 28.5183709,22.1631111 28.5058362,21.584179 C28.4926091,21.1615489 28.8843213,20.9682358 29.6809726,21.0042396 L39.6665059,21.0042396 Z M28.5632105,25.4810509 C23.5305275,23.8864536 24.6953657,27.2530666 24.6953657,27.8153966 C26.7245359,33.7881597 31.4128118,37.2060827 30.4792713,36.2393396 C29.8223066,35.1857509 28.8446069,29.0228287 28.5632105,25.4810509 Z M50.6563017,25.4810509 C50.3749053,29.0228287 49.3972056,35.1857509 48.7402409,36.2393396 C47.8067004,37.2060827 52.4949762,33.7881597 54.5241465,27.8153966 C54.5241465,27.2530666 55.6889847,23.8864536 50.6563017,25.4810509 Z M43.2602162,29.9785439 L39.3204494,29.9785439 L43.2208185,24.9585613 C43.3517186,24.7876407 43.4082255,24.5681585 43.376858,24.3524788 C43.3454904,24.136799 43.2290613,23.9442635 43.0553483,23.8208073 C42.8926044,23.6838701 42.6853297,23.6167334 42.4762026,23.6332206 C42.2702506,23.6558766 42.082281,23.7649501 41.9561533,23.9349905 L36.0071055,31.6097324 L39.9468723,31.6097324 L36.2434915,36.3768808 C36.1113031,36.546981 36.046519,36.7627288 36.0622622,36.9804206 C36.0906301,37.1867382 36.1968929,37.3729885 36.3577447,37.498323 C36.4928621,37.6066988 36.6596012,37.6642282 36.8305168,37.6615385 C37.0787304,37.6545846 37.3105541,37.5316072 37.4608794,37.3270482 L43.2602162,29.9785439 Z" id="Combined-Shape" fill="#FFFFFF"></path>
    </g>
</svg>