<?xml version="1.0" encoding="UTF-8"?>
<svg width="80px" height="80px" viewBox="0 0 80 80" version="1.1" xmlns="http://www.w3.org/2000/svg" xmlns:xlink="http://www.w3.org/1999/xlink">
    <!-- Generator: Sketch 55.2 (78181) - https://sketchapp.com -->
    <title>icons/eepe/ic_trophy</title>
    <desc>Created with Sketch.</desc>
    <g id="icons/eepe/ic_trophy" stroke="none" stroke-width="1" fill="none" fill-rule="evenodd">
        <path d="M32.8720912,54.4701987 L46.3627852,54.4701987 C47.4673547,54.4701987 48.3627852,55.3656292 48.3627852,56.4701987 L48.3627852,57 C48.3627852,58.1045695 47.4673547,59 46.3627852,59 L32.8720912,59 C31.7675217,59 30.8720912,58.1045695 30.8720912,57 L30.8720912,56.4701987 C30.8720912,55.3656292 31.7675217,54.4701987 32.8720912,54.4701987 Z M39.9175562,21.0042396 L49.9298768,21.0042396 C50.7378489,20.9682358 51.1351275,21.1615489 51.1217125,21.584179 C51.1089996,22.1631111 51.1089996,22.5718851 51.1217125,22.8105009 C58.7430763,21.6212814 57.6679384,26.785971 57.6679384,27.0799749 C55.6934074,36.6718854 47.0475302,40.5300916 46.7649464,40.7200442 C46.0684293,41.7598357 44.8233013,42.885701 43.0295626,44.0976402 C43.0285678,44.1851349 43.0285678,44.2746047 43.0295626,44.3660495 C44.4905691,45.2321088 44.4389595,46.2668209 42.8747337,47.4701859 C42.8747337,47.7326371 42.8747337,47.9891138 42.8747337,48.2396159 C45.2785974,51.9723848 45.645575,51.9532316 46.1885372,52.3056585 C46.6438902,52.4963293 46.5021179,53.09186 46.1885372,53.0966843 C46.0245012,53.0978914 43.9149887,53.0852918 39.86,53.0588855 C35.8050113,53.0852918 33.6954988,53.0978914 33.5314628,53.0966843 C33.2178821,53.09186 33.0761098,52.4963293 33.5314628,52.3056585 C34.074425,51.9532316 34.4414026,51.9723848 36.8452663,48.2396159 C36.8452663,47.9891138 36.8452663,47.7326371 36.8452663,47.4701859 C35.2810405,46.2668209 35.2294309,45.2321088 36.6904374,44.3660495 C36.6914322,44.2746047 36.6914322,44.1851349 36.6904374,44.0976402 C34.8966987,42.885701 33.6515707,41.7598357 32.9550536,40.7200442 C32.6724698,40.5300916 24.0265926,36.6718854 22.0520616,27.0799749 C22.0520616,26.785971 20.9769237,21.6212814 28.5982875,22.8105009 C28.6110004,22.5718851 28.6110004,22.1631111 28.5982875,21.584179 C28.5848725,21.1615489 28.9821511,20.9682358 29.7901232,21.0042396 L39.9175562,21.0042396 Z M28.6564772,25.4810509 C23.5522771,23.8864536 24.7336683,27.2530666 24.7336683,27.8153966 C26.7916741,33.7881597 31.5465728,37.2060827 30.5997662,36.2393396 C29.9334657,35.1857509 28.9418724,29.0228287 28.6564772,25.4810509 Z M51.0635228,25.4810509 C50.7781276,29.0228287 49.7865343,35.1857509 49.1202338,36.2393396 C48.1734272,37.2060827 52.9283259,33.7881597 54.9863317,27.8153966 C54.9863317,27.2530666 56.1677229,23.8864536 51.0635228,25.4810509 Z" id="Combined-Shape" fill="#FFFFFF"></path>
    </g>
</svg>