<?xml version="1.0" encoding="UTF-8"?>
<svg width="80px" height="80px" viewBox="0 0 80 80" version="1.1" xmlns="http://www.w3.org/2000/svg" xmlns:xlink="http://www.w3.org/1999/xlink">
    <!-- Generator: Sketch 55.2 (78181) - https://sketchapp.com -->
    <title>icons/snm/ic_upgrd</title>
    <desc>Created with Sketch.</desc>
    <g id="icons/snm/ic_upgrd" stroke="none" stroke-width="1" fill="none" fill-rule="evenodd">
        <path d="M26.5903161,51.9189189 C21.8720835,46.7483982 20.6766634,39.3292877 23.5376408,32.9731647 C26.3986181,26.6170416 32.7821838,22.5098494 39.8389838,22.4848649 L41.5670709,22.4848649 L41.5670709,19 L49.6314774,23.5405405 L41.5670709,28.0810811 L41.5670709,24.6756757 L39.8389838,24.6756757 C31.2602088,24.7429965 24.3118948,31.5589738 24.2055559,40.0113514 C24.1977234,43.8197533 25.6455172,47.4914387 28.2608003,50.2956757 L26.5903161,51.9189189 Z M38.1108967,57.5945946 L38.1108967,61 L30.0464903,56.4594595 L38.1108967,51.9189189 L38.1108967,55.4264865 L39.8389838,55.4264865 C43.1982008,55.4447875 46.4698765,54.3715783 49.147613,52.372973 L50.2996711,54.2572973 C47.257257,56.4289234 43.5958308,57.5970367 39.8389838,57.5945946 L38.1108967,57.5945946 Z M38.1108967,45.1081081 L30.1271343,45.1081081 L30.1271343,43.4621622 L33.0072795,40.1816216 C34.8736136,38.0021622 35.5418072,37.06 35.5418072,36.2881081 C35.5418072,35.5162162 34.6547225,34.7783784 33.5026645,34.7783784 C32.6272351,34.7798654 31.7557759,34.8943531 30.9105338,35.1189189 L30.9105338,33.1097297 C31.7962905,32.7752251 32.7384843,32.6095853 33.6869938,32.6216216 C36.3943302,32.6216216 38.0302527,33.6205405 38.0302527,35.8454054 C38.0302527,37.2983784 37.1316474,38.3540541 34.9772988,40.9648649 L33.3989792,42.8605405 L38.1108967,42.8605405 L38.1108967,45.1081081 Z M39.3320783,43.972973 C39.3320783,43.0514038 40.0902954,42.3043243 41.0256036,42.3043243 C41.9609119,42.3043243 42.719129,43.0514038 42.719129,43.972973 C42.7714011,44.5915611 42.4660311,45.1865145 41.9293802,45.511643 C41.3927293,45.8367715 40.7160809,45.8367715 40.17943,45.511643 C39.6427791,45.1865145 39.3374091,44.5915611 39.3896812,43.972973 L39.3320783,43.972973 Z M50.7835355,45.1081081 L43.8711871,45.1081081 L43.8711871,42.9059459 L46.1753032,42.9059459 L46.1753032,35.0621622 L43.3412404,36.1972973 L43.3412404,34.1086486 L46.7743734,32.6216216 L48.4794193,32.6216216 L48.4794193,42.8378378 L50.7835355,42.8378378 L50.7835355,45.1081081 Z M55.0807121,43.972973 C55.4162545,42.6822054 55.5865461,41.3551385 55.5876176,40.0227027 C55.5416267,35.1769613 53.2023833,30.630173 49.2628188,27.7291892 L50.7835355,26.1627027 C55.1527487,29.4647461 57.7088459,34.5857977 57.6959329,40.0113514 C57.6849108,41.5112387 57.4954472,43.0046828 57.1313754,44.4610811 L55.0807121,43.972973 Z M51.9355935,50.8518919 L57.6958839,50.8518919 L57.6958839,57.6627027 L60,57.6627027 L60,59.8648649 L51.9355935,59.8648649 L51.9355935,57.5945946 L55.3917677,57.5945946 L55.3917677,53.0540541 L51.9355935,53.0540541 L51.9355935,50.8518919 Z M54.2397097,47.9572973 C54.2397097,47.3611465 54.5624937,46.8102805 55.0864723,46.5122051 C55.6104509,46.2141297 56.2560191,46.2141297 56.7799977,46.5122051 C57.3039763,46.8102805 57.6267604,47.3611465 57.6267604,47.9572973 C57.6267604,48.5534481 57.3039763,49.1043141 56.7799977,49.4023895 C56.2560191,49.7004649 55.6104509,49.7004649 55.0864723,49.4023895 C54.5624937,49.1043141 54.2397097,48.5534481 54.2397097,47.9572973 L54.2397097,47.9572973 Z" id="ICON_SNM_034" fill="#FFFFFF"></path>
    </g>
</svg>