<?xml version="1.0" encoding="UTF-8"?>
<svg width="80px" height="80px" viewBox="0 0 80 80" version="1.1" xmlns="http://www.w3.org/2000/svg" xmlns:xlink="http://www.w3.org/1999/xlink">
    <!-- Generator: Sketch 55.2 (78181) - https://sketchapp.com -->
    <title>icons/gen/ic_volume</title>
    <desc>Created with Sketch.</desc>
    <defs>
        <path d="M21,33.2755556 L29.85,33.2755556 L40.5,23 L40.5,57 L29.85,46.7244444 L21,46.7244444 L21,33.2755556 Z M48.3,30.2533333 L49.5,29.3466667 C52.5,32.8222222 54,36.4488889 54,40.0755556 C54,43.8533333 52.5,47.3288889 49.5,50.8044444 L48.3,49.8977778 C51,46.7244444 52.5,43.4 52.5,40.0755556 C52.5,36.7511111 51,33.4266667 48.3,30.2533333 Z M54,55.3377778 L52.8,54.4311111 C56.4,50.0488889 58.5,45.0622222 58.5,40.0755556 C58.5,35.0888889 56.55,30.1022222 52.8,25.72 L54,24.6622222 C57.9,29.3466667 60,34.4844444 60,39.9244444 C60,45.3644444 57.9,50.6533333 54,55.3377778 Z" id="path-1"></path>
    </defs>
    <g id="icons/gen/ic_volume" stroke="none" stroke-width="1" fill="none" fill-rule="evenodd">
        <mask id="mask-2" fill="white">
            <use xlink:href="#path-1"></use>
        </mask>
        <use id="ICON_GEN_012" fill="#FFFFFF" xlink:href="#path-1"></use>
    </g>
</svg>