<?xml version="1.0" encoding="UTF-8"?>
<svg width="80px" height="80px" viewBox="0 0 80 80" version="1.1" xmlns="http://www.w3.org/2000/svg" xmlns:xlink="http://www.w3.org/1999/xlink">
    <!-- Generator: Sketch 55.2 (78181) - https://sketchapp.com -->
    <title>icons/snm/ic_video_player</title>
    <desc>Created with Sketch.</desc>
    <g id="icons/snm/ic_video_player" stroke="none" stroke-width="1" fill="none" fill-rule="evenodd">
        <path d="M22,23 L57,23 L57,48.0207254 L22,48.0207254 L22,23 Z M45.6199095,53.7202073 L45.6199095,56 L43.5045249,56 L43.5045249,53.7202073 L22.0113122,53.7202073 L22.0113122,51.5430052 L43.5045249,51.5430052 L43.5045249,49.2632124 L45.6199095,49.2632124 L45.6199095,51.5430052 L57,51.5430052 L57,53.7202073 L45.6199095,53.7202073 Z M34.3076923,27.3658031 L34.3076923,43.5523316 L47.9502262,35.4818653 L34.3076923,27.3658031 Z M36.7511312,31.4352332 L43.4253394,35.4818653 L36.638009,39.4487047 L36.7511312,31.4352332 Z" id="ICON_SNM_026" fill="#FFFFFF"></path>
    </g>
</svg>