<?xml version="1.0" encoding="UTF-8"?>
<svg width="80px" height="80px" viewBox="0 0 80 80" version="1.1" xmlns="http://www.w3.org/2000/svg" xmlns:xlink="http://www.w3.org/1999/xlink">
    <!-- Generator: Sketch 55.2 (78181) - https://sketchapp.com -->
    <title>icons/devices/ic_wifisecu_fair</title>
    <desc>Created with Sketch.</desc>
    <g id="icons/devices/ic_wifisecu_fair" stroke="none" stroke-width="1" fill="none" fill-rule="evenodd">
        <path d="M39.9508128,42.1714824 L39.9508128,45.1260897 C38.2611995,43.4291398 36.0080862,42.4220962 33.6254689,42.298936 C30.9177477,42.4331715 28.3862335,43.6916221 26.6330888,45.7749446 L25,44.1528073 C27.2222977,41.6784087 30.3191804,40.1807801 33.6254689,39.981597 C35.8998003,40.0796679 38.0970505,40.8403737 39.9508128,42.1714824 L39.9508128,42.1714824 Z M30.8193164,52.1592137 C30.7933724,51.3986208 31.0818918,50.6612896 31.6160322,50.1231517 C32.1501725,49.5850139 32.8820267,49.2943352 33.6369696,49.3204733 C34.6436201,49.3204733 35.5738036,49.8615341 36.0771289,50.7398435 C36.5804542,51.6181528 36.5804542,52.7002745 36.0771289,53.5785839 C35.5738036,54.4568932 34.6436201,54.9979541 33.6369696,54.997954 C32.8800679,55.0273881 32.145145,54.7381667 31.6084464,54.1996495 C31.0717478,53.6611323 30.7816837,52.9218935 30.8078157,52.1592137 L30.8193164,52.1592137 Z M60.0539057,50.4096227 L46.2531554,50.4096227 C45.2186707,50.4744398 44.2043505,50.1008708 43.4552494,49.3791682 C42.7061482,48.6574655 42.2903977,47.6532688 42.308441,46.6091866 L42.308441,36.9458828 C42.2800797,35.885387 42.697043,34.8620344 43.4567952,34.1274785 C44.2165473,33.3929226 45.2485992,33.015315 46.2991579,33.0875133 L46.9201917,33.0875133 L46.9201917,31.8709103 C46.9201917,28.0125408 49.3468236,25 53.1765318,25 C57.00624,25 59.432872,28.0125408 59.432872,31.8709103 L59.432872,33.1222734 L59.9964026,33.1222734 C61.0488807,33.0466504 62.0840546,33.4227302 62.8464083,34.1576833 C63.6087621,34.8926365 64.0272664,35.9179867 63.9986202,36.9806429 L63.9986202,46.63236 C64.0101943,47.6724425 63.5916109,48.6704613 62.8432695,49.3870358 C62.0949281,50.1036104 61.0843419,50.4740935 60.0539057,50.4096227 Z M49.151313,33.0875133 L57.2017507,33.0875133 L57.2017507,31.8709103 C57.2017507,29.2639039 55.7411713,27.166712 53.14203,27.166712 C50.5428887,27.166712 49.151313,29.2291438 49.151313,31.8709103 L49.151313,33.0875133 Z M53.1765318,37.6642579 C52.4033846,37.6275007 51.6506871,37.9208636 51.1033811,38.4722656 C50.556075,39.0236676 50.2648914,39.7819983 50.3013755,40.5609317 C50.327419,41.6974008 50.9791735,42.7247846 51.9919674,43.2258716 L51.9919674,47.0263077 L54.3610962,47.0263077 L54.3610962,43.1911115 C55.3738901,42.6900245 56.0256447,41.6626408 56.0516882,40.5261716 C56.0782214,39.753148 55.7826434,39.0041743 55.2365023,38.4605486 C54.6903611,37.9169229 53.943437,37.6281961 53.1765318,37.6642579 L53.1765318,37.6642579 Z" id="-_ICON_CONNECTIVITY_05C" fill="#FFFFFF"></path>
        <path d="M15.6914286,34.285816 L14,32.5829892 C20.0571429,26.8116634 26.5714286,24.0002849 34,24.0002849 C38.1654029,23.9809698 42.2766593,24.9441613 46,26.8116634 C45.5915846,27.4532168 45.2868903,28.1551583 45.0971429,28.8916263 C41.6576612,27.1537385 37.8535371,26.26051 34,26.2859585 C27.0480179,26.2801781 20.4100976,29.1805909 15.6914286,34.285816 Z M41.0514286,33.4286884 C40.6266198,34.0641828 40.3637398,34.7939562 40.2857143,35.5543649 C38.300929,34.7008108 36.1604779,34.2688365 34,34.285816 C29.1885714,34.285816 25.2114286,36.0800698 21.4285714,40 L19.7142857,38.354315 C24.2857143,33.9886785 28.7885714,32.0001424 34,32.0001424 C36.4262604,31.9593558 38.8323577,32.446806 41.0514286,33.4286884 Z" id="-_ICON_CONNECTIVITY_05C" fill-opacity="0.4" fill="#FFFFFF"></path>
    </g>
</svg>