<?xml version="1.0" encoding="UTF-8"?>
<svg width="80px" height="80px" viewBox="0 0 80 80" version="1.1" xmlns="http://www.w3.org/2000/svg" xmlns:xlink="http://www.w3.org/1999/xlink">
    <!-- Generator: Sketch 55.2 (78181) - https://sketchapp.com -->
    <title>icons/devices/ic_wifisecu_low</title>
    <desc>Created with Sketch.</desc>
    <g id="icons/devices/ic_wifisecu_low" stroke="none" stroke-width="1" fill="none" fill-rule="evenodd">
        <path d="M31.0016008,52.1595973 C30.9758083,51.3989937 31.2626433,50.661652 31.7936652,50.1235066 C32.3246871,49.5853612 33.0522684,49.2946783 33.8028038,49.3208169 C34.8035772,49.3208168 35.72833,49.8618853 36.2287168,50.740207 C36.7291035,51.6185288 36.7291035,52.7006658 36.2287168,53.5789875 C35.72833,54.4573093 34.8035772,54.9983778 33.8028038,54.9983777 C33.0522684,55.0245163 32.3246871,54.7338334 31.7936652,54.195688 C31.2626433,53.6575426 30.9758083,52.9202009 31.0016008,52.1595973 L31.0016008,52.1595973 Z M60.0769441,50.4099816 L46.3567664,50.4099816 C45.3283212,50.4747996 44.3199229,50.1012254 43.5751953,49.3795125 C42.8304676,48.6577996 42.4171443,47.6535888 42.4350822,46.6094919 L42.4350822,36.9460515 C42.4068865,35.8855407 42.8214155,34.8621737 43.576732,34.1276074 C44.3320485,33.3930412 45.358075,33.0154282 46.4025003,33.0876275 L47.0199083,33.0876275 L47.0199083,31.8710073 C47.0199083,28.0125833 49.4323729,25 53.2397222,25 C57.0470715,25 59.4595361,28.0125833 59.4595361,31.8710073 L59.4595361,33.1223881 L60.0197767,33.1223881 C61.0661101,33.0467641 62.0952404,33.4228491 62.8531433,34.1578127 C63.6110462,34.8927762 64.0271072,35.918141 63.9986283,36.9808121 L63.9986283,46.6326656 C64.0101348,47.6727627 63.5939952,48.6707956 62.8500228,49.3873803 C62.1060505,50.1039649 61.1013643,50.4744533 60.0769441,50.4099816 Z M49.2380037,33.0876275 L57.2414407,33.0876275 L57.2414407,31.8710073 C57.2414407,29.2639641 55.7893886,27.1667426 53.2054218,27.1667426 C50.621455,27.1667426 49.2380037,29.2292035 49.2380037,31.8710073 L49.2380037,33.0876275 Z M53.2397222,37.6644368 C52.4710888,37.6276791 51.7227857,37.9210461 51.178675,38.4724559 C50.6345643,39.0238657 50.3450807,39.7822071 50.3813518,40.5611515 C50.4072433,41.6976367 51.0551927,42.7250349 52.0620736,43.2261291 L52.0620736,47.0266188 L54.4173708,47.0266188 L54.4173708,43.1913685 C55.4242517,42.6902743 56.0722011,41.6628761 56.0980926,40.5263909 C56.1244709,39.7533564 55.8306186,39.0043721 55.287666,38.4607387 C54.7447133,37.9171054 54.00215,37.6283745 53.2397222,37.6644368 L53.2397222,37.6644368 Z" id="-_ICON_CONNECTIVITY_05D" fill="#FFFFFF"></path>
        <path d="M15.6914286,34.4212045 L14,32.695964 C20.0571429,26.8486723 26.5714286,24.0002886 34,24.0002886 C38.1654029,23.9807193 42.2766593,24.9565889 46,26.8486723 C45.5915846,27.4986703 45.2868903,28.2098511 45.0971429,28.9560131 C41.6576612,27.1952501 37.8535371,26.2902643 34,26.3160477 C27.0480179,26.3101912 20.4100976,29.2487812 15.6914286,34.4212045 Z M41.0514286,33.5527949 C40.6266198,34.196654 40.3637398,34.9360332 40.2857143,35.7064508 C38.300929,34.8416617 36.1604779,34.4040015 34,34.4212045 C29.1885714,34.4212045 25.2114286,36.2390754 21.4285714,40.2106023 L19.7142857,38.5432557 C24.2857143,34.1201558 28.7885714,32.1054454 34,32.1054454 C36.4262604,32.0641219 38.8323577,32.5579883 41.0514286,33.5527949 Z M40.2857143,42.3989946 L40.2857143,45.3515875 C38.6066867,43.6557946 36.3676897,42.6494375 34,42.5263614 C31.3092432,42.6605053 28.7935895,43.9180979 27.0514286,46 L25.4285714,44.3789686 C27.636946,41.9062571 30.714426,40.4096496 34,40.2106023 C36.2600823,40.3086063 38.4435662,41.0687935 40.2857143,42.3989946 Z" id="-_ICON_CONNECTIVITY_05D" fill-opacity="0.4" fill="#FFFFFF"></path>
    </g>
</svg>