<?xml version="1.0" encoding="UTF-8"?>
<svg width="80px" height="80px" viewBox="0 0 80 80" version="1.1" xmlns="http://www.w3.org/2000/svg" xmlns:xlink="http://www.w3.org/1999/xlink">
    <!-- Generator: Sketch 55.2 (78181) - https://sketchapp.com -->
    <title>icons/cluster/ic_warnings</title>
    <desc>Created with Sketch.</desc>
    <defs>
        <path d="M39.970013,15 L63,55 L17,55 L39.970013,15 Z M39.970013,21.3037686 L22.5026076,52.1069661 L57.4973924,52.1069661 L39.970013,21.3037686 Z M37.8109518,47.5390179 C37.8048896,46.6679229 38.3177335,45.8794544 39.1090594,45.5432507 C39.9003853,45.207047 40.8133145,45.3897597 41.4198607,46.0057322 C42.0264069,46.6217048 42.2063236,47.5488217 41.8752648,48.3524456 C41.5442061,49.1560695 40.7678036,49.6768834 39.9100391,49.6707271 C38.7541459,49.6624309 37.8191209,48.7128748 37.8109518,47.5390179 L37.8109518,47.5390179 Z M38.4706649,29.3433574 L41.4693611,29.3433574 L41.4693611,35.9821089 L41.2594524,42.8035782 L38.6955671,42.8035782 L38.4706649,35.9821089 L38.4706649,29.3433574 Z" id="path-1"></path>
    </defs>
    <g id="icons/cluster/ic_warnings" stroke="none" stroke-width="1" fill="none" fill-rule="evenodd">
        <mask id="mask-2" fill="white">
            <use xlink:href="#path-1"></use>
        </mask>
        <use id="PICTO_CLUSTER_06" fill="#FD9338" xlink:href="#path-1"></use>
    </g>
</svg>