<?xml version="1.0" encoding="UTF-8"?>
<svg width="80px" height="80px" viewBox="0 0 80 80" version="1.1" xmlns="http://www.w3.org/2000/svg" xmlns:xlink="http://www.w3.org/1999/xlink">
    <!-- Generator: Sketch 55.2 (78181) - https://sketchapp.com -->
    <title>icons/gen/ic_zoom_in</title>
    <desc>Created with Sketch.</desc>
    <defs>
        <polygon id="path-1" points="42.2857143 41.6076555 42.2857143 56 39.2380952 56 39.2380952 41.6076555 24 41.6076555 24 38.5454545 39.2380952 38.5454545 39.2380952 24 42.2857143 24 42.2857143 38.3923445 56 38.3923445 56 41.4545455 42.2857143 41.4545455"></polygon>
    </defs>
    <g id="icons/gen/ic_zoom_in" stroke="none" stroke-width="1" fill="none" fill-rule="evenodd">
        <mask id="mask-2" fill="white">
            <use xlink:href="#path-1"></use>
        </mask>
        <use id="ICON_GEN_014" fill="#FFFFFF" xlink:href="#path-1"></use>
    </g>
</svg>