<?xml version="1.0" encoding="UTF-8"?>
<svg width="80px" height="80px" viewBox="0 0 80 80" version="1.1" xmlns="http://www.w3.org/2000/svg" xmlns:xlink="http://www.w3.org/1999/xlink">
    <!-- Generator: Sketch 55.2 (78181) - https://sketchapp.com -->
    <title>icons/snm/ic_mex</title>
    <desc>Created with Sketch.</desc>
    <g id="icons/snm/ic_mex" stroke="none" stroke-width="1" fill="none" fill-rule="evenodd">
        <path d="M35.0516881,40.5936683 C34.4955099,40.5936683 31.9302801,39.3037284 29.3764009,39.3037284 C26.8225217,39.3037284 26.3117458,40.5936683 24.1437862,40.5936683 C22.8117203,40.6687524 21.5073646,40.1908701 20.5354541,39.2716682 C19.5635436,38.3524664 19.0092152,37.072465 19.001976,35.730709 C18.9244486,32.8647572 21.137629,30.4614801 23.9848781,30.3198105 C25.8528699,30.2209529 27.6140544,31.1995644 28.5251078,32.8426134 C29.0567072,33.9336243 29.7325099,34.9473578 30.5341595,35.8562783 C31.9678743,36.9291051 33.5668213,37.7582103 35.267349,38.3105888 C35.7667742,38.4818198 35.9937857,38.6416353 35.9937857,39.1439128 C36.0278374,39.9772368 35.6078662,40.5936683 35.0516881,40.5936683 Z M37.719073,45.1598273 C37.7140106,45.4686666 37.5969534,45.7650108 37.3899064,45.9931513 C35.267349,48.9611547 34.7111708,50.3538332 34.7111708,52.0889736 C34.7111708,53.0935286 34.8814294,53.938268 34.8814294,54.771592 C34.8740846,55.9048906 34.5039369,57.0056642 33.825826,57.9108264 C32.9400927,59.2284917 31.4572619,60.0127094 29.8758262,60 C27.0342442,59.9809875 24.7441371,57.6522673 24.7567172,54.7944228 C24.7421593,53.7794456 25.0351225,52.7840527 25.5966597,51.9405735 C27.4241021,49.429186 29.1493894,49.9314635 31.374102,49.0981395 C32.599964,48.5844466 33.8825789,47.0776141 35.4943605,44.6233036 C35.667615,44.2811585 36.0002904,44.0495295 36.3797053,44.0068722 C37.0448777,44.0142639 37.609161,44.5000105 37.719073,45.1598273 L37.719073,45.1598273 Z M38.8541304,35.2512623 C38.8541304,32.2946743 38.627119,30.7764264 37.9687857,29.6577175 C37.5161502,29.0047923 37.0112642,28.390124 36.4591593,27.8198385 C35.4313899,26.8146556 34.8641995,25.4257835 34.89278,23.9842649 C34.8623485,22.6269524 35.3961673,21.3183755 36.3656869,20.3736541 C37.3352065,19.4289326 38.6525688,18.9336775 40.0005385,19.0071516 C41.3485081,18.9336775 42.6658704,19.4289326 43.63539,20.3736541 C44.6049096,21.3183755 45.1387284,22.6269524 45.1082969,23.9842649 C45.1513234,25.4239782 44.6057053,26.8185055 43.5986705,27.8426693 C43.0472464,28.410485 42.5459349,29.0254251 42.1003947,29.6805483 C41.4307108,30.822088 41.2150499,32.3175051 41.2150499,35.2740931 C41.2150499,36.1188325 40.8177798,36.4156328 40.0799925,36.4156328 C39.3422051,36.4156328 38.8314293,36.1188325 38.8314293,35.2740931 L38.8541304,35.2512623 Z M43.666774,44.0182876 C44.0072912,44.0182876 44.279705,44.2351801 44.5634693,44.634719 C46.1752509,47.0890295 47.4465152,48.595862 48.6723772,49.1095549 C50.9424921,49.9428789 52.6223771,49.4406014 54.4611701,51.9519889 C55.0200208,52.7961546 55.3091192,53.7918716 55.289762,54.8058382 C55.2960733,57.659234 53.0077906,59.9809961 50.170653,59.9999902 C48.6010178,60.0122214 47.1283806,59.2374539 46.2433543,57.9336572 C45.5626283,57.029149 45.1886251,55.9287419 45.1764003,54.7944228 C45.1764003,53.9610988 45.3466589,53.1163594 45.3466589,52.1118044 C45.3466589,50.376664 44.7904808,48.9839855 42.679274,46.0159821 C42.4674889,45.7908521 42.3496691,45.4925776 42.3501061,45.1826581 C42.4535367,44.5266331 43.0066027,44.0375391 43.666774,44.0182876 L43.666774,44.0182876 Z M44.0072912,39.1439128 C44.0072912,38.6416353 44.2229521,38.4818198 44.7223774,38.3105888 C46.4191511,37.7701903 48.0176094,36.9567589 49.4555668,35.9019399 C50.2497948,34.9896839 50.9214396,33.9764631 51.4532679,32.888275 C52.3682561,31.2492046 54.1267606,30.2720822 55.9934976,30.3654721 C58.8316889,30.4948701 61.0512124,32.873858 60.9991009,35.730709 C60.9920285,37.074565 60.4361516,38.3564487 59.4617139,39.2760107 C58.4872762,40.1955727 57.1799118,40.6720015 55.8459402,40.5936683 C53.6779805,40.5936683 53.0082966,39.3037284 50.5679231,39.3037284 C48.1275497,39.3037284 45.505567,40.5936683 44.9493888,40.5936683 C44.3932107,40.5936683 43.9732395,39.9772368 43.9732395,39.1324974 L44.0072912,39.1439128 Z" id="ICON_SNM_009" fill="#FFFFFF"></path>
    </g>
</svg>