<?xml version="1.0" encoding="UTF-8"?>
<svg width="80px" height="80px" viewBox="0 0 80 80" version="1.1" xmlns="http://www.w3.org/2000/svg" xmlns:xlink="http://www.w3.org/1999/xlink">
    <!-- Generator: Sketch 55.2 (78181) - https://sketchapp.com -->
    <title>icons/radio/ic_menu</title>
    <desc>Created with Sketch.</desc>
    <defs>
        <path d="M20,54 L20,25.6153846 L27.5925926,13 L29.262963,14.0512821 L22.4296296,25.6153846 L61,25.6153846 L61,54 L20,54 Z M25.9222222,33.7252747 C25.9222222,35.0769231 26.9851852,36.2783883 28.3518519,36.2783883 C29.7185185,36.2783883 30.9333333,35.2271062 30.9333333,33.7252747 C30.9333333,32.3736264 29.8703704,31.3223443 28.3518519,31.3223443 C26.9851852,31.3223443 25.9222222,32.3736264 25.9222222,33.7252747 Z M45.0555556,32.974359 C40.3481481,32.974359 36.5518519,36.7289377 36.5518519,41.3846154 C36.5518519,46.040293 40.3481481,49.7948718 45.0555556,49.7948718 C49.762963,49.7948718 53.5592593,46.040293 53.5592593,41.3846154 C53.5592593,36.7289377 49.762963,32.974359 45.0555556,32.974359 Z M38.3740741,41.3846154 C38.3740741,37.6300366 41.4111111,34.6263736 45.0555556,34.6263736 C48.7,34.6263736 51.737037,37.6300366 51.737037,41.3846154 C51.737037,44.989011 48.7,48.1428571 45.0555556,48.1428571 C41.4111111,48.1428571 38.3740741,44.989011 38.3740741,41.3846154 Z" id="path-1"></path>
    </defs>
    <g id="icons/radio/ic_menu" stroke="none" stroke-width="1" fill="none" fill-rule="evenodd">
        <mask id="mask-2" fill="white">
            <use xlink:href="#path-1"></use>
        </mask>
        <use id="ICON_MENU_002" fill="#FFFFFF" xlink:href="#path-1"></use>
    </g>
</svg>